{
	"format_version": "1.12.0",
	"minecraft:geometry": [
		{
			"description": {
				"identifier": "geometry.morpeko",
				"texture_width": 64,
				"texture_height": 64,
				"visible_bounds_width": 3,
				"visible_bounds_height": 2.5,
				"visible_bounds_offset": [0, 0.75, 0]
			},
			"bones": [
				{
					"name": "morpeko",
					"pivot": [0, 0, 0]
				},
				{
					"name": "body",
					"parent": "morpeko",
					"pivot": [0, 7, 0]
				},
				{
					"name": "torso",
					"parent": "body",
					"pivot": [0, 1.5, 0],
					"cubes": [
						{"origin": [-4.5, 1, -4], "size": [9, 6, 8], "uv": [0, 15]}
					]
				},
				{
					"name": "head",
					"parent": "torso",
					"pivot": [0, 7, 0],
					"cubes": [
						{"origin": [-4.5, 7, -4], "size": [9, 7, 8], "uv": [0, 0]},
						{"origin": [-4.5, 7.5, -4], "size": [2, 2, 1], "inflate": 0.01, "uv": [32, 20], "mirror": true},
						{"origin": [2.5, 7.5, -4], "size": [2, 2, 1], "inflate": 0.01, "uv": [26, 20]}
					]
				},
				{
					"name": "mouth_open",
					"parent": "head",
					"pivot": [0, 8, -3.96],
					"cubes": [
						{"origin": [-0.5, 8, -3.93], "size": [1, 1, 0], "inflate": 0.001, "uv": [12, 29]},
						{"origin": [-2, 8, -3.92], "size": [4, 1, 0], "inflate": 0.001, "uv": [14, 29]},
						{"origin": [-1.5, 7, -3.92], "size": [3, 1, 0], "inflate": 0.001, "uv": [22, 29]}
					]
				},
				{
					"name": "mouth_open_hangry",
					"parent": "head",
					"pivot": [0, 8, -3.96],
					"cubes": [
						{"origin": [-0.5, 8, -3.93], "size": [1, 1, 0], "inflate": 0.001, "uv": [41, 63]},
						{"origin": [-1, 8, -3.92], "size": [2, 1, 0], "inflate": 0.001, "uv": [43, 63]},
						{"origin": [-1.5, 7, -3.92], "size": [3, 1, 0], "inflate": 0.001, "uv": [47, 63]}
					]
				},
				{
					"name": "mouth_closed",
					"parent": "head",
					"pivot": [0, 8.5, -4.01],
					"cubes": [
						{"origin": [-1, 7.5, -4.01], "size": [2, 1, 0], "uv": [0, 29]},
						{"origin": [-2, 8, -4.01], "size": [4, 1, 0], "uv": [4, 29]}
					]
				},
				{
					"name": "eye_left",
					"parent": "head",
					"pivot": [2.5, 10.25, -3.51],
					"rotation": [0, 0, -2.5],
					"cubes": [
						{"origin": [1.5, 9.25, -4.01], "size": [2, 2, 1], "inflate": 0.001, "uv": [58, 3]},
						{"origin": [2, 9.75, -4.015], "size": [1, 1, 1], "inflate": 0.001, "uv": [4, 21]}
					]
				},
				{
					"name": "eyelid_left",
					"parent": "eye_left",
					"pivot": [2.5, 10.25, -3.41],
					"cubes": [
						{"origin": [1.5, 9.25, -3.91], "size": [2, 2, 1], "inflate": 0.01, "uv": [58, 8]}
					]
				},
				{
					"name": "eye_right",
					"parent": "head",
					"pivot": [-2.5, 10.25, -3.51],
					"rotation": [0, 0, 2.5],
					"cubes": [
						{"origin": [-3.5, 9.25, -4.01], "size": [2, 2, 1], "inflate": 0.001, "uv": [49, 0]},
						{"origin": [-3, 9.75, -4.015], "size": [1, 1, 1], "inflate": 0.001, "uv": [0, 21]}
					]
				},
				{
					"name": "eyelid_right",
					"parent": "eye_right",
					"pivot": [-2.5, 10.25, -3.41],
					"cubes": [
						{"origin": [-3.5, 9.25, -3.91], "size": [2, 2, 1], "inflate": 0.01, "uv": [55, 0]}
					]
				},
				{
					"name": "ear_left",
					"parent": "head",
					"pivot": [3, 14.25, 0],
					"rotation": [0, 0, 30],
					"cubes": [
						{"origin": [2, 13.25, 0], "size": [3, 5, 0], "uv": [0, 15]}
					]
				},
				{
					"name": "ear_left2",
					"parent": "ear_left",
					"pivot": [5, 14.25, 0],
					"rotation": [0, 0, 42.5],
					"cubes": [
						{"origin": [5, 13.25, 0], "size": [1, 2, 0], "inflate": 0.01, "uv": [6, 6]}
					]
				},
				{
					"name": "ear_right",
					"parent": "head",
					"pivot": [-3, 14.25, 0],
					"rotation": [0, 0, -30],
					"cubes": [
						{"origin": [-5, 13.25, 0], "size": [3, 5, 0], "uv": [0, 0]}
					]
				},
				{
					"name": "ear_right2",
					"parent": "ear_right",
					"pivot": [-5, 14.25, 0],
					"rotation": [0, 0, -42.5],
					"cubes": [
						{"origin": [-6, 13.25, 0], "size": [1, 2, 0], "inflate": 0.01, "uv": [6, 4]}
					]
				},
				{
					"name": "arm_left",
					"parent": "torso",
					"pivot": [4.5, 7.5, -1.5],
					"cubes": [
						{"origin": [4.5, 5.5, -2.5], "size": [2, 2, 2], "inflate": 0.01, "uv": [36, 12]}
					]
				},
				{
					"name": "hand_left",
					"parent": "arm_left",
					"pivot": [6.5, 6.5, 0],
					"cubes": [
						{"origin": [6.5, 5.5, -2.5], "size": [2, 2, 2], "uv": [34, 8]}
					]
				},
				{
					"name": "thumb_left",
					"parent": "hand_left",
					"pivot": [7.5, 6.5, -2.5],
					"cubes": [
						{"origin": [7, 6.5, -3], "size": [1, 0, 2], "uv": [4, 2]}
					]
				},
				{
					"name": "arm_right",
					"parent": "torso",
					"pivot": [-4.5, 7.5, -1.5],
					"cubes": [
						{"origin": [-6.5, 5.5, -2.5], "size": [2, 2, 2], "inflate": 0.01, "uv": [40, 4]}
					]
				},
				{
					"name": "hand_right",
					"parent": "arm_right",
					"pivot": [-6.5, 6.5, -0.5],
					"cubes": [
						{"origin": [-8.5, 5.5, -2.5], "size": [2, 2, 2], "uv": [36, 0]}
					]
				},
				{
					"name": "thumb_right",
					"parent": "hand_right",
					"pivot": [-7.5, 6.5, -2.5],
					"cubes": [
						{"origin": [-8, 6.5, -3], "size": [1, 0, 2], "uv": [4, 0]}
					]
				},
				{
					"name": "foot_right",
					"parent": "body",
					"pivot": [-2.5, 0.75, 1],
					"cubes": [
						{"origin": [-4, 0, -2], "size": [3, 1, 4], "uv": [26, 15]}
					]
				},
				{
					"name": "foot_left",
					"parent": "body",
					"pivot": [2.5, 0.75, 1],
					"cubes": [
						{"origin": [1, 0, -2], "size": [3, 1, 4], "uv": [26, 0]}
					]
				}
			]
		}
	]
}