{
	"format_version": "1.8.0",
	"animations": {
		"animation.wingull.ground_idle": {
			"loop": true,
			"bones": {
				"wing_left": {
					"rotation": [0, 0, "-52.5+math.cos(q.anim_time*90*3-60)*2"]
				},
				"wing_left2": {
					"rotation": [0, 0, "102.5+math.cos(q.anim_time*90*3-90)*3"]
				},
				"tail": {
					"rotation": ["45+math.cos(q.anim_time*90*3-90)*3", 0, 0]
				},
				"wing_right": {
					"rotation": [0, 0, "52.5-math.cos(q.anim_time*90*3-60)*2"]
				},
				"wing_right2": {
					"rotation": [0, 0, "-102.5-math.cos(q.anim_time*90*3-90)*3"]
				},
				"torso": {
					"rotation": ["0+math.cos(q.anim_time*90*3)*1/2", 0, 0],
					"position": [0, "0+math.sin(q.anim_time*90*3)*0.1", 0]
				},
				"jaw": {
					"rotation": ["2.5+math.cos(q.anim_time*90*3)*2", 0, 0]
				},
				"ear_left": {
					"rotation": ["0+math.cos(q.anim_time*90*3-60)*2", 0, 0]
				},
				"ear_right": {
					"rotation": ["0+math.cos(q.anim_time*90*3-60)*2", 0, 0]
				},
				"foot_left": {
					"rotation": [0, -20, 0],
					"position": [1, 0, 0]
				},
				"foot_right": {
					"rotation": [0, 20, 0],
					"position": [-1, 0, 0]
				}
			}
		},
		"animation.wingull.ground_walk": {
			"loop": true,
			"animation_length": 1.33333,
			"bones": {
				"wing_left": {
					"rotation": [0, 0, "-60+math.cos(q.anim_time*90*3*2-60)*2"]
				},
				"wing_left2": {
					"rotation": [0, 0, "102.5+math.cos(q.anim_time*90*3*2-90)*3"]
				},
				"tail": {
					"rotation": ["45+math.cos(q.anim_time*90*3*2-90)*3", 0, 0]
				},
				"wing_right": {
					"rotation": [0, 0, "60-math.cos(q.anim_time*90*3*2-60)*2"]
				},
				"wing_right2": {
					"rotation": [0, 0, "-102.5-math.cos(q.anim_time*90*3*2-90)*3"]
				},
				"torso": {
					"rotation": ["-5+math.cos(q.anim_time*90*3*2)*1/2", "0-math.cos(q.anim_time*90*3)*2", "0+math.cos(q.anim_time*90*3)*5"],
					"position": [0, "0+math.sin(q.anim_time*90*3*2)*0.2", 0]
				},
				"jaw": {
					"rotation": ["7.5+math.cos(q.anim_time*90*3*2)*2", 0, 0]
				},
				"ear_left": {
					"rotation": ["0+math.cos(q.anim_time*90*3*2-60)*2", 0, 0]
				},
				"ear_right": {
					"rotation": ["0+math.cos(q.anim_time*90*3*2-60)*2", 0, 0]
				},
				"foot_left": {
					"rotation": {
						"0.0": ["-10+math.cos(q.anim_time*90*3)*10", -20, 0],
						"0.3333": ["-0.1077+math.cos(q.anim_time*90*3)*10", -19.37767, 0.23332],
						"1.0": ["-10+math.cos(q.anim_time*90*3)*10", -20, 0]
					},
					"position": [1, "0+math.clamp(math.cos(q.anim_time*90*3-180)*1/2,0,5)", "-1+math.sin(q.anim_time*90*3)*2"]
				},
				"foot_right": {
					"rotation": {
						"0.0": ["0-math.cos(q.anim_time*90*3)*10", 20, 0],
						"0.3333": [0, 20, 0],
						"0.9583": [0, 20, 0],
						"1.0": ["0-math.cos(q.anim_time*90*3)*10", 20, 0],
						"1.3333": ["0-math.cos(q.anim_time*90*3)*10", 20, 0]
					},
					"position": [-1, "0+math.clamp(math.cos(q.anim_time*90*3)*1/2,0,5)", "-1-math.sin(q.anim_time*90*3)*2"]
				}
			}
		},
		"animation.wingull.air_idle": {
			"loop": true,
			"bones": {
				"body": {
					"rotation": ["0+math.cos(q.anim_time*90*2)*3", 0, 0],
					"position": [0, "0+math.sin(q.anim_time*90*2+30)*5/2", 0]
				},
				"foot_left": {
					"rotation": ["39.9309-math.cos(q.anim_time*90*2-120)*20", -10.79, -6],
					"position": [0, 0, 0]
				},
				"foot_right": {
					"rotation": ["39.9309-math.cos(q.anim_time*90*2-120)*20", 10.78927, 6]
				},
				"wing_left": {
					"rotation": [0, 0, "0+math.clamp(math.cos(q.anim_time*90*2)*60,0,1000)-math.clamp(math.cos(q.anim_time*90*2-180)*50,0,50)"]
				},
				"wing_left2": {
					"rotation": [0, 0, "0+math.cos(q.anim_time*90*2-90)*50"]
				},
				"wing_right": {
					"rotation": [0, 0, "0-math.clamp(math.cos(q.anim_time*90*2)*60,0,1000)+math.clamp(math.cos(q.anim_time*90*2-180)*50,0,50)"]
				},
				"wing_right2": {
					"rotation": [0, 0, "0-math.cos(q.anim_time*90*2-90)*50"]
				},
				"tail": {
					"rotation": ["0+math.cos(q.anim_time*90*2-60)*4", 0, 0]
				},
				"tail_left": {
					"rotation": [0, 2.5, 0]
				},
				"tail_right": {
					"rotation": [0, -2.5, 0]
				},
				"tail_middle": {
					"rotation": [0, 0, 0]
				},
				"ear_left": {
					"rotation": ["0+math.cos(q.anim_time*90*2-60)*2", 0, 0]
				},
				"ear_right": {
					"rotation": ["0+math.cos(q.anim_time*90*2-60)*2", 0, 0]
				}
			}
		},
		"animation.wingull.air_fly": {
			"loop": true,
			"animation_length": 8,
			"bones": {
				"body": {
					"rotation": {
						"0.0": [0, 0, "0+math.cos(q.anim_time*90*1*20)*0.07"],
						"3.5833": [1, 0, 0],
						"4.3333": {
							"pre": [-1.5, 0, 0],
							"post": [-1.5, 0, 0],
							"lerp_mode": "catmullrom"
						},
						"4.9167": {
							"post": [2.5, 0, 0],
							"lerp_mode": "catmullrom"
						},
						"8.0": [0, 0, 0]
					},
					"position": {
						"0.0": [
							0,
							"-math.clamp(math.sin(q.anim_time*90*1)0.3,0,20)+math.clamp(math.sin(q.anim_time*90*1-90)*0.5,0,20)-math.clamp(math.cos(q.anim_time*90*1-150)*0.5,0,20)",
							0
						],
						"3.125": [0, -1, 0],
						"4.3333": {
							"pre": [0, -1.8, 0],
							"post": [0, -1.8, 0],
							"lerp_mode": "catmullrom"
						},
						"4.75": {
							"post": [0, 4, 0],
							"lerp_mode": "catmullrom"
						},
						"5.5": {
							"post": [0, 7, 0],
							"lerp_mode": "catmullrom"
						},
						"6.3333": {
							"post": [0, -0.77, 0],
							"lerp_mode": "catmullrom"
						},
						"7.125": [0, 0.19, 0],
						"7.1667": [0, 0.22, 0],
						"7.9583": [
							0,
							"-math.clamp(math.sin(q.anim_time*90*1)0.3,0,20)+math.clamp(math.sin(q.anim_time*90*1-90)*0.5,0,20)-math.clamp(math.cos(q.anim_time*90*1-150)*0.5,0,20)",
							0
						]
					}
				},
				"foot_left": {
					"rotation": {
						"0.0": [38.01035, -11.0126, -6],
						"3.5833": [38.01035, -11.0126, -6],
						"4.5417": {
							"pre": [46.51035, -11.0126, -6],
							"post": [46.51035, -11.0126, -6],
							"lerp_mode": "catmullrom"
						},
						"5.625": {
							"post": [28.01035, -11.0126, -6],
							"lerp_mode": "catmullrom"
						},
						"8.0": [38.01035, -11.0126, -6]
					}
				},
				"foot_right": {
					"rotation": {
						"0.0": [39.93086, 10.78927, 6],
						"3.5833": [38.01035, 11.0126, 6],
						"4.5417": {
							"pre": [46.51035, 11.0126, 6],
							"post": [46.51035, 11.0126, 6],
							"lerp_mode": "catmullrom"
						},
						"5.625": {
							"post": [28.01035, 11.0126, 6],
							"lerp_mode": "catmullrom"
						},
						"8.0": [39.93086, 10.78927, 6]
					}
				},
				"wing_left": {
					"rotation": {
						"0.0": ["0+math.cos(q.anim_time*90*1*20)*0.3", 0, "0-math.cos(q.anim_time*90*1)*2"],
						"3.2083": ["0+math.cos(q.anim_time*90*1*20)*0.3", 0, 0],
						"3.7083": ["0+math.cos(q.anim_time*90*1*20)*0.3", 0, "0-math.cos(q.anim_time*90*2)*50"],
						"4.9583": ["-0.0003+math.cos(q.anim_time*90*1*20)*0.3", -0.00677, "12.5-math.cos(q.anim_time*90*2)*50"],
						"7.8333": ["0+math.cos(q.anim_time*90*1*20)*0.3", 0, -2],
						"8.0": ["0+math.cos(q.anim_time*90*1*20)*0.3", 0, "0-math.cos(q.anim_time*90*1)*2"]
					}
				},
				"wing_left2": {
					"rotation": {
						"0.0": [0, 0, 0],
						"3.5": [0, 0, 0],
						"4.0": [0, 0, "0-math.cos(q.anim_time*90*2-90)*50"],
						"7.3333": [0, 0, 0]
					}
				},
				"wing_right": {
					"rotation": {
						"0.0": ["0+math.cos(q.anim_time*90*1*20)*0.3", 0, "0+math.cos(q.anim_time*90*1)*2"],
						"3.2083": ["0+math.cos(q.anim_time*90*1*20)*0.3", 0, 0],
						"3.75": ["0+math.cos(q.anim_time*90*1*20)*0.3", 0, "-3+math.cos(q.anim_time*90*2)*60"],
						"4.9583": ["0+math.cos(q.anim_time*90*1*20)*0.3", 0, "-7.5+math.cos(q.anim_time*90*2)*60"],
						"7.8333": ["0+math.cos(q.anim_time*90*1*20)*0.3", 0, 2],
						"8.0": ["0+math.cos(q.anim_time*90*1*20)*0.3", 0, "0+math.cos(q.anim_time*90*1)*2"]
					}
				},
				"wing_right2": {
					"rotation": {
						"0.0": [0, 0, 0],
						"3.5": [0, 0, 0],
						"4.0": [0, 0, "0+math.cos(q.anim_time*90*2-90)*50"],
						"7.3333": [0, 0, 0]
					}
				},
				"tail": {
					"rotation": {
						"0.0": [0, 2.5, 0],
						"3.5833": [0, 2.5, 0],
						"4.4167": {
							"pre": [-6, 2.5, 0],
							"post": [-6, 2.5, 0],
							"lerp_mode": "catmullrom"
						},
						"5.4167": {
							"post": [6, 2.5, 0],
							"lerp_mode": "catmullrom"
						},
						"8.0": [0, 2.5, 0]
					}
				},
				"tail_left": {
					"rotation": [0, 2.5, 0]
				},
				"tail_right": {
					"rotation": [0, -2.5, 0]
				},
				"tail_middle": {
					"rotation": [0, 0, 0]
				},
				"ear_left": {
					"rotation": ["0+math.cos(q.anim_time*90*1*20)*0.3", 0, 0]
				},
				"ear_right": {
					"rotation": ["0+math.cos(q.anim_time*90*1*20)*0.3", 0, 0]
				}
			}
		},
		"animation.wingull.surfacewater_idle": {
			"loop": true,
			"bones": {
				"body": {
					"rotation": ["-2.5+math.cos(q.anim_time*90*1.5)*1", 0, 0],
					"position": [0, "-1.25+math.sin(q.anim_time*90*1.5)*0.2", 0]
				},
				"wing_left": {
					"rotation": [0, 0, "-60+math.cos(q.anim_time*90*1.5)*3"]
				},
				"wing_left2": {
					"rotation": [0, 0, "110+math.cos(q.anim_time*90*1.5-90)*3"]
				},
				"wing_right": {
					"rotation": [0, 0, "60-math.cos(q.anim_time*90*1.5)*3"]
				},
				"wing_right2": {
					"rotation": [0, 0, "-110-math.cos(q.anim_time*90*1.5-90)*3"]
				},
				"tail": {
					"rotation": ["-7.5-math.cos(q.anim_time*90*1.5-60)*3", 0, 0]
				},
				"tail_left": {
					"rotation": [0, 2.5, 0]
				},
				"tail_right": {
					"rotation": [0, -2.5, 0]
				},
				"foot_left": {
					"rotation": ["35+math.cos(q.anim_time*90*2+90)*20", 0, 0],
					"position": [1, "0+math.sin(q.anim_time*90*2+90)*0.5", 0]
				},
				"foot_right": {
					"rotation": ["35-math.cos(q.anim_time*90*2+90)*20", 0, 0],
					"position": [-1, "0-math.sin(q.anim_time*90*2+90)*0.5", 0]
				},
				"ear_left": {
					"rotation": ["0+math.cos(q.anim_time*90*1.5-90)*2", 0, 0]
				},
				"ear_right": {
					"rotation": ["0+math.cos(q.anim_time*90*1.5-90)*2", 0, 0]
				}
			}
		},
		"animation.wingull.surfacewater_swim": {
			"loop": true,
			"bones": {
				"body": {
					"rotation": ["-7.5+math.cos(q.anim_time*90*2.5*2)*1", 0, 0],
					"position": [0, "-1.25+math.sin(q.anim_time*90*2.5*2)*0.2", "0+math.cos(q.anim_time*90*2.5*2)*0.1"]
				},
				"wing_left": {
					"rotation": [0, 0, "-60+math.cos(q.anim_time*90*2.5)*5"]
				},
				"wing_left2": {
					"rotation": [0, 0, "102.5+math.cos(q.anim_time*90*2.5-90)*6"]
				},
				"wing_right": {
					"rotation": [0, 0, "60-math.cos(q.anim_time*90*2.5)*5"]
				},
				"wing_right2": {
					"rotation": [0, 0, "-107.5-math.cos(q.anim_time*90*2.5-90)*6"]
				},
				"tail": {
					"rotation": ["10+math.cos(q.anim_time*90*2.5*2-90)*5", 0, 0]
				},
				"tail_left": {
					"rotation": [0, 2.5, 0]
				},
				"tail_right": {
					"rotation": [0, -2.5, 0]
				},
				"foot_left": {
					"rotation": ["35+math.cos(q.anim_time*90*3+90)*20", 0, 0],
					"position": [1, "-0.25+math.sin(q.anim_time*90*3+90)*0.5", "0+math.cos(q.anim_time*90*3+90)*1.5"]
				},
				"foot_right": {
					"rotation": ["35-math.cos(q.anim_time*90*3+90)*20", 0, 0],
					"position": [-1, "-0.25-math.sin(q.anim_time*90*3+90)*0.5", "0-math.cos(q.anim_time*90*3+90)*1.5"]
				},
				"ear_left": {
					"rotation": ["0+math.cos(q.anim_time*90*2.5*2-90)*2", 0, 0]
				},
				"ear_right": {
					"rotation": ["0+math.cos(q.anim_time*90*2.5*2-90)*2", 0, 0]
				},
				"torso": {
					"rotation": [-2.5, 0, 0]
				}
			}
		},
		"animation.wingull.surfacewater_sleep": {
			"loop": true,
			"bones": {
				"body": {
					"rotation": ["-2.5+math.cos(q.anim_time*90*1)*1", 0, 0],
					"position": [0, "-1.25+math.sin(q.anim_time*90*1)*0.2", 0]
				},
				"wing_left": {
					"rotation": [0, 0, "-60+math.cos(q.anim_time*90*1)*3"]
				},
				"wing_left2": {
					"rotation": [0, 0, "110+math.cos(q.anim_time*90*1-90)*3"]
				},
				"wing_right": {
					"rotation": [0, 0, "60-math.cos(q.anim_time*90*1)*3"]
				},
				"wing_right2": {
					"rotation": [0, 0, "-110-math.cos(q.anim_time*90*1-90)*3"]
				},
				"tail": {
					"rotation": ["-7.5-math.cos(q.anim_time*90*1-60)*3", 0, 0]
				},
				"tail_left": {
					"rotation": [0, 2.5, 0]
				},
				"tail_right": {
					"rotation": [0, -2.5, 0]
				},
				"foot_left": {
					"rotation": ["35+math.cos(q.anim_time*90*3/2+90)*20", 0, 0],
					"position": [1, "0+math.sin(q.anim_time*90*3/2+90)*0.5", 0]
				},
				"foot_right": {
					"rotation": ["35-math.cos(q.anim_time*90*3/2+90)*20", 0, 0],
					"position": [-1, "0-math.sin(q.anim_time*90*3/2+90)*0.5", 0]
				},
				"ear_left": {
					"rotation": ["0+math.cos(q.anim_time*90*1-90)*2", 0, 0]
				},
				"ear_right": {
					"rotation": ["0+math.cos(q.anim_time*90*1-90)*2", 0, 0]
				},
				"eyelid_left": {
					"position": [0, 0, -0.1]
				},
				"eyelid_right": {
					"position": [0, 0, -0.1]
				}
			}
		},
		"animation.wingull.blink": {
			"animation_length": 0.1667,
			"bones": {
				"eyelid_left": {
					"position": {
						"0.0": [0, 0, -0.1],
						"0.125": [0, 0, -0.1],
						"0.1667": [0, 0, 0]
					}
				},
				"eyelid_right": {
					"position": {
						"0.0": [0, 0, -0.1],
						"0.125": [0, 0, -0.1],
						"0.1667": [0, 0, 0]
					}
				}
			}
		},
		"animation.wingull.cry": {
			"animation_length": 1.5,
			"bones": {
				"jaw": {
					"rotation": {
						"0.0": [0, 0, 0],
						"0.25": {
							"pre": [40, 0, 0],
							"post": [40, 0, 0],
							"lerp_mode": "catmullrom"
						},
						"1.0833": {
							"post": [17.5, 0, 0],
							"lerp_mode": "catmullrom"
						},
						"1.5": [0, 0, 0]
					}
				},
				"torso": {
					"rotation": {
						"0.0": [0, 0, 0],
						"0.25": {
							"pre": [-7.5, 0, 0],
							"post": [-7.5, 0, 0],
							"lerp_mode": "catmullrom"
						},
						"1.0": {
							"post": [-8.5, 0, 0],
							"lerp_mode": "catmullrom"
						},
						"1.5": [0, 0, 0]
					}
				}
			}
		},
		"animation.wingull.sleep": {
			"loop": true,
			"bones": {
				"wing_left": {
					"rotation": [0, 0, "-72.5+math.cos(q.anim_time*90*3/2-60)*2"]
				},
				"wing_left2": {
					"rotation": [0, 0, "142.5+math.cos(q.anim_time*90*3/2-90)*3"]
				},
				"tail": {
					"rotation": ["-30+math.cos(q.anim_time*90*3/2-90)*2", 0, 0]
				},
				"wing_right": {
					"rotation": [0, 0, "72.5-math.cos(q.anim_time*90*3/2-60)*2"]
				},
				"wing_right2": {
					"rotation": [0, 0, "-142.5-math.cos(q.anim_time*90*3/2-90)*3"]
				},
				"torso": {
					"rotation": ["4.5+math.cos(q.anim_time*90*3/2)*1/2", 0, 0],
					"position": [0, "0+math.sin(q.anim_time*90*3/2)*0.1", 0]
				},
				"jaw": {
					"rotation": ["2.5+math.cos(q.anim_time*90*3/2)1", 0, 0]
				},
				"ear_left": {
					"rotation": ["0+math.cos(q.anim_time*90*3/2-60)*2", 0, 0]
				},
				"ear_right": {
					"rotation": ["0+math.cos(q.anim_time*90*3/2-60)*2", 0, 0]
				},
				"foot_left": {
					"rotation": [0, -20, 0],
					"position": [1, 0, 0]
				},
				"foot_right": {
					"rotation": [0, 20, 0],
					"position": [-1, 0, 0]
				},
				"eyelid_left": {
					"position": [0, 0, -0.1]
				},
				"eyelid_right": {
					"position": [0, 0, -0.1]
				}
			}
		}
	}
}