{
	"credit": "Made with Blockbench",
	"texture_size": [32, 16],
	"textures": {
		"6": "green_mint",
		"particle": "white_mint"
	},
	"elements": [
		{
			"from": [6.5, 7, 6.5],
			"to": [9.5, 7, 9.5],
			"faces": {
				"north": {"uv": [0, 0, 1.5, 0], "texture": "#6"},
				"east": {"uv": [0, 0, 1.5, 0], "texture": "#6"},
				"south": {"uv": [0, 0, 1.5, 0], "texture": "#6"},
				"west": {"uv": [0, 0, 1.5, 0], "texture": "#6"},
				"up": {"uv": [14.5, 13, 16, 16], "texture": "#6"},
				"down": {"uv": [14.5, 13, 16, 16], "texture": "#6"}
			}
		},
		{
			"from": [3.73, 2.85, 6.5],
			"to": [3.73, 5.85, 9.5],
			"rotation": {"angle": -22.5, "axis": "z", "origin": [3.73, 5.85, 8]},
			"faces": {
				"north": {"uv": [0, 0, 1.5, 0], "rotation": 90, "texture": "#6"},
				"east": {"uv": [14.5, 9, 16, 12], "rotation": 90, "texture": "#6"},
				"south": {"uv": [0, 0, 1.5, 0], "rotation": 270, "texture": "#6"},
				"west": {"uv": [6.5, 12, 8, 15], "rotation": 90, "texture": "#6"},
				"up": {"uv": [0, 0, 1.5, 0], "rotation": 270, "texture": "#6"},
				"down": {"uv": [0, 0, 1.5, 0], "rotation": 270, "texture": "#6"}
			}
		},
		{
			"from": [3.5, 7, 5.5],
			"to": [6.5, 7, 10.5],
			"rotation": {"angle": 22.5, "axis": "z", "origin": [6.5, 7, 8]},
			"faces": {
				"north": {"uv": [4.75, 4, 6.25, 4], "texture": "#6"},
				"east": {"uv": [2.75, 4, 5.25, 4], "texture": "#6"},
				"south": {"uv": [1.25, 4, 2.75, 4], "texture": "#6"},
				"west": {"uv": [2.75, 4, 5.25, 4], "texture": "#6"},
				"up": {"uv": [5, 11, 6.5, 16], "rotation": 180, "texture": "#6"},
				"down": {"uv": [13, 8, 14.5, 13], "rotation": 180, "texture": "#6"}
			}
		},
		{
			"from": [8, -1, 3],
			"to": [8, 12, 13],
			"rotation": {"angle": -45, "axis": "y", "origin": [8, 3, 8]},
			"faces": {
				"north": {"uv": [0, 0, 0, 13], "texture": "#6"},
				"east": {"uv": [0, 0, 5, 13], "texture": "#6"},
				"south": {"uv": [0, 0, 0, 13], "texture": "#6"},
				"west": {"uv": [0, 0, 5, 13], "texture": "#6"},
				"up": {"uv": [5, 0, 0, 0], "rotation": 270, "texture": "#6"},
				"down": {"uv": [5, 0, 0, 0], "rotation": 90, "texture": "#6"}
			}
		},
		{
			"from": [3, -1, 8],
			"to": [13, 12, 8],
			"rotation": {"angle": -45, "axis": "y", "origin": [8, 3, 8]},
			"faces": {
				"north": {"uv": [0, 0, 5, 13], "texture": "#6"},
				"east": {"uv": [0, 0, 0, 13], "texture": "#6"},
				"south": {"uv": [0, 0, 5, 13], "texture": "#6"},
				"west": {"uv": [0, 1, 0, 14], "texture": "#6"},
				"up": {"uv": [5, 0, 0, 0], "texture": "#6"},
				"down": {"uv": [5, 0, 0, 0], "texture": "#6"}
			}
		},
		{
			"from": [12.27, 2.85, 6.5],
			"to": [12.27, 5.85, 9.5],
			"rotation": {"angle": 22.5, "axis": "z", "origin": [12.27, 5.85, 8]},
			"faces": {
				"north": {"uv": [0, 0, 1.5, 0], "rotation": 270, "texture": "#6"},
				"east": {"uv": [6.5, 12, 8, 15], "rotation": 90, "texture": "#6"},
				"south": {"uv": [0, 0, 1.5, 0], "rotation": 90, "texture": "#6"},
				"west": {"uv": [14.5, 9, 16, 12], "rotation": 90, "texture": "#6"},
				"up": {"uv": [0, 0, 1.5, 0], "rotation": 90, "texture": "#6"},
				"down": {"uv": [0, 0, 1.5, 0], "rotation": 90, "texture": "#6"}
			}
		},
		{
			"from": [9.5, 7, 5.5],
			"to": [12.5, 7, 10.5],
			"rotation": {"angle": -22.5, "axis": "z", "origin": [9.5, 7, 8]},
			"faces": {
				"north": {"uv": [1.25, 4, 2.75, 4], "texture": "#6"},
				"east": {"uv": [2.75, 4, 5.25, 4], "texture": "#6"},
				"south": {"uv": [4.75, 4, 6.25, 4], "texture": "#6"},
				"west": {"uv": [2.75, 4, 5.25, 4], "texture": "#6"},
				"up": {"uv": [5, 11, 6.5, 16], "texture": "#6"},
				"down": {"uv": [13, 8, 14.5, 13], "texture": "#6"}
			}
		},
		{
			"from": [5.5, 7, 3.5],
			"to": [10.5, 7, 6.5],
			"rotation": {"angle": -22.5, "axis": "x", "origin": [8, 7, 6.5]},
			"faces": {
				"north": {"uv": [2.75, 4, 5.25, 4], "texture": "#6"},
				"east": {"uv": [4.75, 4, 6.25, 4], "texture": "#6"},
				"south": {"uv": [2.75, 4, 5.25, 4], "texture": "#6"},
				"west": {"uv": [1.25, 4, 2.75, 4], "texture": "#6"},
				"up": {"uv": [6.5, 16, 5, 11], "rotation": 90, "texture": "#6"},
				"down": {"uv": [13, 8, 14.5, 13], "rotation": 90, "texture": "#6"}
			}
		},
		{
			"from": [6.5, 2.85, 3.73],
			"to": [9.5, 5.85, 3.73],
			"rotation": {"angle": 22.5, "axis": "x", "origin": [8, 5.85, 3.73]},
			"faces": {
				"north": {"uv": [6.5, 12, 8, 15], "rotation": 90, "texture": "#6"},
				"east": {"uv": [0, 0, 1.5, 0], "rotation": 90, "texture": "#6"},
				"south": {"uv": [14.5, 9, 16, 12], "rotation": 90, "texture": "#6"},
				"west": {"uv": [0, 0, 1.5, 0], "rotation": 270, "texture": "#6"},
				"up": {"uv": [0, 0, 1.5, 0], "texture": "#6"},
				"down": {"uv": [0, 0, 1.5, 0], "rotation": 180, "texture": "#6"}
			}
		},
		{
			"from": [5.5, 7, 9.5],
			"to": [10.5, 7, 12.5],
			"rotation": {"angle": 22.5, "axis": "x", "origin": [8, 7, 9.5]},
			"faces": {
				"north": {"uv": [2.75, 4, 5.25, 4], "texture": "#6"},
				"east": {"uv": [1.25, 4, 2.75, 4], "texture": "#6"},
				"south": {"uv": [2.75, 4, 5.25, 4], "texture": "#6"},
				"west": {"uv": [4.75, 4, 6.25, 4], "texture": "#6"},
				"up": {"uv": [5, 11, 6.5, 16], "rotation": 90, "texture": "#6"},
				"down": {"uv": [13, 8, 14.5, 13], "rotation": 270, "texture": "#6"}
			}
		},
		{
			"from": [6.5, 2.85, 12.27],
			"to": [9.5, 5.85, 12.27],
			"rotation": {"angle": -22.5, "axis": "x", "origin": [8, 5.85, 12.27]},
			"faces": {
				"north": {"uv": [14.5, 9, 16, 12], "rotation": 90, "texture": "#6"},
				"east": {"uv": [0, 0, 1.5, 0], "rotation": 90, "texture": "#6"},
				"south": {"uv": [6.5, 12, 8, 15], "rotation": 90, "texture": "#6"},
				"west": {"uv": [0, 0, 1.5, 0], "rotation": 270, "texture": "#6"},
				"up": {"uv": [0, 0, 1.5, 0], "texture": "#6"},
				"down": {"uv": [0, 0, 1.5, 0], "rotation": 180, "texture": "#6"}
			}
		},
		{
			"from": [4.73, 8.85, 6.5],
			"to": [4.73, 10.85, 9.5],
			"rotation": {"angle": -22.5, "axis": "z", "origin": [4.73, 10.85, 8]},
			"faces": {
				"north": {"uv": [0, 0, 1, 0], "rotation": 90, "texture": "#6"},
				"east": {"uv": [4, 13, 5, 16], "rotation": 90, "texture": "#6"},
				"south": {"uv": [0, 0, 1, 0], "rotation": 270, "texture": "#6"},
				"west": {"uv": [1.5, 13, 2.5, 16], "rotation": 90, "texture": "#6"},
				"up": {"uv": [0, 0, 1.5, 0], "rotation": 270, "texture": "#6"},
				"down": {"uv": [0, 0, 1.5, 0], "rotation": 270, "texture": "#6"}
			}
		},
		{
			"from": [4.5, 12, 6.5],
			"to": [7.5, 12, 9.5],
			"rotation": {"angle": 22.5, "axis": "z", "origin": [7.5, 12, 8]},
			"faces": {
				"north": {"uv": [4.75, 4, 6.25, 4], "texture": "#6"},
				"east": {"uv": [2.75, 4, 4.25, 4], "texture": "#6"},
				"south": {"uv": [1.25, 4, 2.75, 4], "texture": "#6"},
				"west": {"uv": [2.75, 4, 4.25, 4], "texture": "#6"},
				"up": {"uv": [0, 13, 1.5, 16], "rotation": 180, "texture": "#6"},
				"down": {"uv": [2.5, 13, 4, 16], "rotation": 180, "texture": "#6"}
			}
		},
		{
			"from": [6, 12, 7.5],
			"to": [8, 12, 8.5],
			"rotation": {"angle": -22.5, "axis": "z", "origin": [8, 12, 8]},
			"faces": {
				"north": {"uv": [4.75, 4, 5.75, 4], "texture": "#6"},
				"east": {"uv": [2.75, 4, 3.25, 4], "texture": "#6"},
				"south": {"uv": [1.25, 4, 2.25, 4], "texture": "#6"},
				"west": {"uv": [2.75, 4, 3.25, 4], "texture": "#6"},
				"up": {"uv": [14, 7, 15, 8], "texture": "#6"},
				"down": {"uv": [15, 7, 16, 8], "texture": "#6"}
			}
		},
		{
			"from": [7.5, 12, 7.5],
			"to": [8.5, 12, 8.5],
			"rotation": {"angle": 0, "axis": "y", "origin": [0, 4, 0]},
			"faces": {
				"north": {"uv": [0, 0, 0.5, 0], "texture": "#6"},
				"east": {"uv": [0, 0, 0.5, 0], "texture": "#6"},
				"south": {"uv": [0, 0, 0.5, 0], "texture": "#6"},
				"west": {"uv": [0, 0, 0.5, 0], "texture": "#6"},
				"up": {"uv": [14, 15, 14.5, 16], "texture": "#6"},
				"down": {"uv": [14, 15, 14.5, 16], "texture": "#6"}
			}
		},
		{
			"from": [6.5, 12, 8.5],
			"to": [9.5, 12, 11.5],
			"rotation": {"angle": 22.5, "axis": "x", "origin": [8, 12, 8.5]},
			"faces": {
				"north": {"uv": [2.75, 4, 4.25, 4], "texture": "#6"},
				"east": {"uv": [1.25, 4, 2.75, 4], "texture": "#6"},
				"south": {"uv": [2.75, 4, 4.25, 4], "texture": "#6"},
				"west": {"uv": [4.75, 4, 6.25, 4], "texture": "#6"},
				"up": {"uv": [1.5, 13, 0, 16], "rotation": 270, "texture": "#6"},
				"down": {"uv": [2.5, 13, 4, 16], "rotation": 270, "texture": "#6"}
			}
		},
		{
			"from": [6.5, 8.85, 11.27],
			"to": [9.5, 10.85, 11.27],
			"rotation": {"angle": -22.5, "axis": "x", "origin": [8, 10.85, 11.27]},
			"faces": {
				"north": {"uv": [4, 13, 5, 16], "rotation": 90, "texture": "#6"},
				"east": {"uv": [0, 0, 1, 0], "rotation": 90, "texture": "#6"},
				"south": {"uv": [2.5, 13, 1.5, 16], "rotation": 270, "texture": "#6"},
				"west": {"uv": [0, 0, 1, 0], "rotation": 270, "texture": "#6"},
				"up": {"uv": [0, 0, 1.5, 0], "texture": "#6"},
				"down": {"uv": [0, 0, 1.5, 0], "rotation": 180, "texture": "#6"}
			}
		},
		{
			"from": [8.5, 12, 6.5],
			"to": [11.5, 12, 9.5],
			"rotation": {"angle": -22.5, "axis": "z", "origin": [8.5, 12, 8]},
			"faces": {
				"north": {"uv": [1.25, 4, 2.75, 4], "texture": "#6"},
				"east": {"uv": [2.75, 4, 4.25, 4], "texture": "#6"},
				"south": {"uv": [4.75, 4, 6.25, 4], "texture": "#6"},
				"west": {"uv": [2.75, 4, 4.25, 4], "texture": "#6"},
				"up": {"uv": [0, 13, 1.5, 16], "texture": "#6"},
				"down": {"uv": [2.5, 13, 4, 16], "texture": "#6"}
			}
		},
		{
			"from": [8, 12, 7.5],
			"to": [10, 12, 8.5],
			"rotation": {"angle": 22.5, "axis": "z", "origin": [8, 12, 8]},
			"faces": {
				"north": {"uv": [1.25, 4, 2.25, 4], "texture": "#6"},
				"east": {"uv": [2.75, 4, 3.25, 4], "texture": "#6"},
				"south": {"uv": [4.75, 4, 5.75, 4], "texture": "#6"},
				"west": {"uv": [2.75, 4, 3.25, 4], "texture": "#6"},
				"up": {"uv": [14, 7, 15, 8], "texture": "#6"},
				"down": {"uv": [15, 7, 16, 8], "texture": "#6"}
			}
		},
		{
			"from": [11.27, 8.85, 6.5],
			"to": [11.27, 10.85, 9.5],
			"rotation": {"angle": 22.5, "axis": "z", "origin": [11.27, 10.85, 8]},
			"faces": {
				"north": {"uv": [0, 0, 1, 0], "rotation": 270, "texture": "#6"},
				"east": {"uv": [1.5, 13, 2.5, 16], "rotation": 90, "texture": "#6"},
				"south": {"uv": [0, 0, 1, 0], "rotation": 90, "texture": "#6"},
				"west": {"uv": [4, 13, 5, 16], "rotation": 90, "texture": "#6"},
				"up": {"uv": [0, 0, 1.5, 0], "rotation": 90, "texture": "#6"},
				"down": {"uv": [0, 0, 1.5, 0], "rotation": 90, "texture": "#6"}
			}
		},
		{
			"from": [6.5, 12, 4.5],
			"to": [9.5, 12, 7.5],
			"rotation": {"angle": -22.5, "axis": "x", "origin": [8, 12, 7.5]},
			"faces": {
				"north": {"uv": [2.75, 4, 4.25, 4], "texture": "#6"},
				"east": {"uv": [4.75, 4, 6.25, 4], "texture": "#6"},
				"south": {"uv": [2.75, 4, 4.25, 4], "texture": "#6"},
				"west": {"uv": [1.25, 4, 2.75, 4], "texture": "#6"},
				"up": {"uv": [1.5, 16, 0, 13], "rotation": 90, "texture": "#6"},
				"down": {"uv": [2.5, 13, 4, 16], "rotation": 90, "texture": "#6"}
			}
		},
		{
			"from": [6.5, 8.85, 4.73],
			"to": [9.5, 10.85, 4.73],
			"rotation": {"angle": 22.5, "axis": "x", "origin": [8, 10.85, 4.73]},
			"faces": {
				"north": {"uv": [1.5, 13, 2.5, 16], "rotation": 90, "texture": "#6"},
				"east": {"uv": [0, 0, 1, 0], "rotation": 90, "texture": "#6"},
				"south": {"uv": [4, 13, 5, 16], "rotation": 90, "texture": "#6"},
				"west": {"uv": [0, 0, 1, 0], "rotation": 270, "texture": "#6"},
				"up": {"uv": [0, 0, 1.5, 0], "texture": "#6"},
				"down": {"uv": [0, 0, 1.5, 0], "rotation": 180, "texture": "#6"}
			}
		}
	],
	"display": {
		"thirdperson_righthand": {
			"translation": [0, 4, 1]
		},
		"ground": {
			"translation": [0, 5.5, 0]
		},
		"gui": {
			"rotation": [45, 45, 0],
			"translation": [0, 2.75, 0]
		},
		"head": {
			"translation": [0, 15, 0]
		}
	},
	"groups": [
		{
			"name": "mint4",
			"origin": [8, 8, 8],
			"color": 0,
			"children": [0, 1, 2, 3, 4, 5, 6, 7, 8, 9, 10, 11, 12, 13, 14, 15, 16, 17, 18, 19, 20, 21]
		}
	]
}