{
	"credit": "Made with Blockbench",
	"textures": {
		"34": "block/direhit"
	},
	"elements": [
		{
			"from": [6.5, 4.3, 4.5],
			"to": [9.5, 5.3, 7.5],
			"faces": {
				"north": {"uv": [11, 1, 14, 2], "texture": "#34"},
				"east": {"uv": [11, 2, 14, 3], "texture": "#34"},
				"south": {"uv": [11, 3, 14, 4], "texture": "#34"},
				"west": {"uv": [11, 4, 14, 5], "texture": "#34"},
				"up": {"uv": [9, 9, 6, 6], "texture": "#34"},
				"down": {"uv": [3, 9, 0, 12], "texture": "#34"}
			}
		},
		{
			"from": [6.5, 0, 4.5],
			"to": [9.5, 3, 7.5],
			"faces": {
				"north": {"uv": [3, 0, 6, 3], "texture": "#34"},
				"east": {"uv": [3, 3, 6, 6], "texture": "#34"},
				"south": {"uv": [0, 6, 3, 9], "texture": "#34"},
				"west": {"uv": [6, 0, 9, 3], "texture": "#34"},
				"up": {"uv": [6, 9, 3, 6], "texture": "#34"},
				"down": {"uv": [9, 3, 6, 6], "texture": "#34"}
			}
		},
		{
			"from": [6.5, 3, 4.5],
			"to": [9.5, 4, 7.5],
			"faces": {
				"north": {"uv": [9, 8, 12, 9], "texture": "#34"},
				"east": {"uv": [9, 9, 12, 10], "texture": "#34"},
				"south": {"uv": [9, 10, 12, 11], "texture": "#34"},
				"west": {"uv": [11, 0, 14, 1], "texture": "#34"},
				"up": {"uv": [3, 3, 0, 0], "texture": "#34"},
				"down": {"uv": [3, 3, 0, 6], "texture": "#34"}
			}
		},
		{
			"from": [7, 3, 5],
			"to": [9, 6, 7],
			"faces": {
				"north": {"uv": [9, 0, 11, 3], "texture": "#34"},
				"east": {"uv": [3, 9, 5, 12], "texture": "#34"},
				"south": {"uv": [9, 3, 11, 6], "texture": "#34"},
				"west": {"uv": [5, 9, 7, 12], "texture": "#34"},
				"up": {"uv": [11, 8, 9, 6], "texture": "#34"},
				"down": {"uv": [9, 9, 7, 11], "texture": "#34"}
			}
		},
		{
			"from": [7, 1, 5],
			"to": [9, 4, 7],
			"faces": {
				"north": {"uv": [14, 11, 16, 14], "texture": "#34"},
				"east": {"uv": [14, 11, 16, 14], "texture": "#34"},
				"south": {"uv": [14, 11, 16, 14], "texture": "#34"},
				"west": {"uv": [14, 11, 16, 14], "texture": "#34"},
				"up": {"uv": [14, 9, 16, 11], "texture": "#34"},
				"down": {"uv": [14, 14, 16, 16], "texture": "#34"}
			}
		}
	],
	"display": {
		"thirdperson_righthand": {
			"translation": [-2, 6, 0]
		},
		"thirdperson_lefthand": {
			"translation": [-2, 6, 0],
			"scale": [-1, 1, 1]
		},
		"firstperson_righthand": {
			"translation": [0, 6, 0]
		},
		"firstperson_lefthand": {
			"translation": [0, 6, 0]
		},
		"ground": {
			"translation": [0, 4.5, 0]
		},
		"gui": {
			"rotation": [25, -142, 0],
			"translation": [0, 5.25, 0],
			"scale": [1.25, 1.25, 1.25]
		},
		"head": {
			"translation": [0, 19.5, 0],
			"scale": [1.65, 1.65, 1.65]
		},
		"fixed": {
			"translation": [0, 7, 0],
			"scale": [1.5, 1.5, 1.5]
		}
	},
	"groups": [
		{
			"name": "Dire Hit",
			"origin": [0, 0, 0],
			"color": 0,
			"children": [0, 1, 2, 3, 4]
		}
	]
}