{
	"format_version": "1.8.0",
	"animations": {
		"animation.tyrogue.ground_idle": {
			"loop": true,
			"bones": {
				"torso": {
					"rotation": [12.5, 0, 0]
				},
				"head": {
					"rotation": [-7.5, 0, 0]
				},
				"arm_left": {
					"rotation": [-10.07233, 1.15695, 48.28221]
				},
				"arm_left2": {
					"rotation": [0, 37.5, 0]
				},
				"hand_left": {
					"rotation": [0, 0, 10]
				},
				"finger_left": {
					"rotation": [0, 0, 37.5]
				},
				"finger_left2": {
					"rotation": [0, 0, 62.5]
				},
				"finger_left3": {
					"rotation": [0, 0, 45]
				},
				"finger_left4": {
					"rotation": [0, 0, 50]
				},
				"thumb_left": {
					"rotation": [42.5, -22.5, 0]
				},
				"thumb_left2": {
					"rotation": [55, 0, 0]
				},
				"arm_right": {
					"rotation": [-10.07233, -1.15695, -48.28221]
				},
				"arm_right2": {
					"rotation": [0, -37.5, 0]
				},
				"hand_right": {
					"rotation": [0, 0, -10]
				},
				"finger_right": {
					"rotation": [0, 0, -37.5]
				},
				"finger_right2": {
					"rotation": [0, 0, -62.5]
				},
				"finger_right3": {
					"rotation": [0, 0, -45]
				},
				"finger_right4": {
					"rotation": [0, 0, -50]
				},
				"thumb_right": {
					"rotation": [42.5, 22.5, 0]
				},
				"thumb_right2": {
					"rotation": [55, 0, 0]
				},
				"leg_left": {
					"rotation": [0, -12.5, 0]
				},
				"leg_right": {
					"rotation": [0, 12.5, 0]
				}
			}
		},
		"animation.tyrogue.blink": {
			"animation_length": 0.16667,
			"bones": {
				"eyelid_right": {
					"position": {
						"0.0": [0, 0, -0.1],
						"0.125": [0, 0, -0.1],
						"0.1667": [0, 0, 0]
					}
				},
				"eyelid_left": {
					"position": {
						"0.0": [0, 0, -0.1],
						"0.125": [0, 0, -0.1],
						"0.1667": [0, 0, 0]
					}
				}
			}
		},
		"animation.tyrogue.cry": {
			"animation_length": 1.5,
			"bones": {
				"jaw": {
					"rotation": {
						"0.0": [0, 0, 0],
						"0.25": [25, 0, 0],
						"1.25": [25, 0, 0],
						"1.5": [0, 0, 0]
					}
				},
				"head": {
					"rotation": {
						"0.0": [0, 0, 0],
						"0.25": [-15, 0, 0],
						"1.25": [-15, 0, 0],
						"1.5": [0, 0, 0]
					}
				}
			}
		},
		"pose": {
			"loop": true,
			"bones": {
				"head": {
					"rotation": [-27.5, 0, 0]
				},
				"neck": {
					"rotation": [-25, 0, 0]
				},
				"torso": {
					"rotation": [72.5, 0, 0]
				},
				"leg_left": {
					"rotation": [27.5, 0, 0]
				},
				"leg_left2": {
					"rotation": [12.5, 0, 0]
				},
				"foot_left": {
					"rotation": [-27.5, 0, 0]
				},
				"leg_right": {
					"rotation": [-40, 0, 0]
				},
				"leg_right2": {
					"rotation": [15, 0, 0]
				},
				"leg_right3": {
					"rotation": [25, 0, 0]
				},
				"arm_left": {
					"rotation": [-115.12034, 64.23682, -29.68212]
				},
				"arm_left2": {
					"rotation": [0, 45, 0]
				},
				"hand_left": {
					"rotation": [7.5, 0, 22.5]
				},
				"finger_left": {
					"rotation": [0, 0, 22.5]
				},
				"finger_left2": {
					"rotation": [0, 0, 42.5]
				},
				"finger_left3": {
					"rotation": [0, 0, 32.5]
				},
				"finger_left4": {
					"rotation": [0, 0, 40]
				},
				"thumb_left": {
					"rotation": [30, 0, 0]
				},
				"thumb_left2": {
					"rotation": [42.5, 0, 0]
				},
				"arm_right": {
					"rotation": [-119.51931, -55.27267, 38.87399]
				},
				"arm_right2": {
					"rotation": [0, -27.5, 0]
				},
				"hand_right": {
					"rotation": [-14.65993, -3.21132, -12.08681]
				},
				"finger_right": {
					"rotation": [0, 0, -10]
				},
				"finger_right2": {
					"rotation": [0, 0, -27.5]
				},
				"finger_right3": {
					"rotation": [0, 0, -25]
				},
				"finger_right4": {
					"rotation": [0, 0, -37.5]
				},
				"thumb_right": {
					"rotation": [35, 0, 0]
				},
				"thumb_right2": {
					"rotation": [27.5, 0, 0]
				}
			}
		}
	}
}