{
	"format_version": "1.8.0",
	"animations": {
		"animation.pumpkaboo.ground_idle": {
			"loop": true,
			"animation_length": 4,
			"bones": {
				"body": {
					"rotation": ["math.sin(q.anim_time*90*2)*2", 0, "math.sin(q.anim_time*90*1-45)*2"],
					"position": ["math.sin(q.anim_time*90*1-45)*0.5", "2+math.sin(q.anim_time*90*2-90)*0.75", 0]
				},
				"horn_right": {
					"rotation": [0, 0, "math.sin(q.anim_time*90*1-145)*3"]
				},
				"horn_left": {
					"rotation": [0, 0, "math.sin(q.anim_time*90*1-145)*3"]
				},
				"tuft": {
					"rotation": ["5+math.sin(q.anim_time*90*2-90)*6", 0, 0]
				},
				"tuft2": {
					"rotation": ["math.sin(q.anim_time*90*2-135)*4", "2.5-math.sin(q.anim_time*90*2+135)*1", 0]
				},
				"fluff_front_mid": {
					"rotation": ["math.sin(q.anim_time*90*2-55)*3", 0, 0]
				},
				"fluff_front_left": {
					"rotation": ["math.sin(q.anim_time*90*2-55)*3", 0, 0]
				},
				"fluff_front_right": {
					"rotation": ["math.sin(q.anim_time*90*2-55)*3", 0, 0]
				},
				"fluff_back_mid": {
					"rotation": ["-math.sin(q.anim_time*90*2-55)*3", 0, 0]
				},
				"fluff_back_left": {
					"rotation": ["-math.sin(q.anim_time*90*2-55)*3", 0, 0]
				},
				"fluff_back_right": {
					"rotation": ["-math.sin(q.anim_time*90*2-55)*3", 0, 0]
				},
				"fluff_right": {
					"rotation": [0, 0, "-math.sin(q.anim_time*90*2-55)*4"]
				},
				"fluff_right_back": {
					"rotation": [0, 0, "-math.sin(q.anim_time*90*2-130)*2"]
				},
				"fluff_right_front": {
					"rotation": [0, 0, "-math.sin(q.anim_time*90*2-130)*2"]
				},
				"fluff_right_mid": {
					"rotation": [0, 0, "-math.sin(q.anim_time*90*2-120)*4"]
				},
				"fluff_left": {
					"rotation": [0, 0, "math.sin(q.anim_time*90*2-55)*4"]
				},
				"fluff_left_front": {
					"rotation": [0, 0, "math.sin(q.anim_time*90*2-130)*2"]
				},
				"fluff_left_back": {
					"rotation": [0, 0, "math.sin(q.anim_time*90*2-130)*2"]
				},
				"fluff_left_mid": {
					"rotation": [0, 0, "math.sin(q.anim_time*90*2-120)*4"]
				}
			}
		},
		"animation.pumpkaboo.ground_walk": {
			"loop": true,
			"animation_length": 4,
			"bones": {
				"body": {
					"rotation": ["15+math.sin(q.anim_time*90*2)*3", 0, "math.sin(q.anim_time*90*1-45)*1"],
					"position": ["math.sin(q.anim_time*90*1-45)*0.25", "2+math.sin(q.anim_time*90*2-90)*0.75", "math.sin(q.anim_time*90*2+90)*0.3"]
				},
				"horn_right": {
					"rotation": [0, 0, "math.sin(q.anim_time*90*1-145)*3"]
				},
				"horn_left": {
					"rotation": [0, 0, "math.sin(q.anim_time*90*1-145)*3"]
				},
				"tuft": {
					"rotation": ["5+math.sin(q.anim_time*90*2-90)*6", 0, 0]
				},
				"tuft2": {
					"rotation": ["math.sin(q.anim_time*90*2-135)*4", "2.5-math.sin(q.anim_time*90*2+135)*1", 0]
				},
				"fluff_front_mid": {
					"rotation": ["math.sin(q.anim_time*90*2-55)*3", 0, 0]
				},
				"fluff_front_left": {
					"rotation": ["math.sin(q.anim_time*90*2-55)*3", 0, 0]
				},
				"fluff_front_right": {
					"rotation": ["math.sin(q.anim_time*90*2-55)*3", 0, 0]
				},
				"fluff_back_mid": {
					"rotation": ["-math.sin(q.anim_time*90*2-55)*3", 0, 0]
				},
				"fluff_back_left": {
					"rotation": ["-math.sin(q.anim_time*90*2-55)*3", 0, 0]
				},
				"fluff_back_right": {
					"rotation": ["-math.sin(q.anim_time*90*2-55)*3", 0, 0]
				},
				"fluff_right": {
					"rotation": [0, 0, "-math.sin(q.anim_time*90*2-55)*4"]
				},
				"fluff_right_back": {
					"rotation": [0, 0, "-math.sin(q.anim_time*90*2-130)*2"]
				},
				"fluff_right_front": {
					"rotation": [0, 0, "-math.sin(q.anim_time*90*2-130)*2"]
				},
				"fluff_right_mid": {
					"rotation": [0, 0, "-math.sin(q.anim_time*90*2-120)*4"]
				},
				"fluff_left": {
					"rotation": [0, 0, "math.sin(q.anim_time*90*2-55)*4"]
				},
				"fluff_left_front": {
					"rotation": [0, 0, "math.sin(q.anim_time*90*2-130)*2"]
				},
				"fluff_left_back": {
					"rotation": [0, 0, "math.sin(q.anim_time*90*2-130)*2"]
				},
				"fluff_left_mid": {
					"rotation": [0, 0, "math.sin(q.anim_time*90*2-120)*4"]
				},
				"head": {
					"rotation": ["-10-math.sin(q.anim_time*90*2-55)*3", 0, 0]
				}
			}
		},
		"animation.pumpkaboo.sleep": {
			"loop": true,
			"animation_length": 4,
			"bones": {
				"eyelid_right": {
					"position": [0, 0, -0.1]
				},
				"eyelid_left": {
					"position": [0, 0, -0.1]
				},
				"body": {
					"rotation": [0, 15, 0],
					"position": [0, -1, 0]
				},
				"head": {
					"rotation": ["12.5+math.sin(q.anim_time*90*1)*3", 0, 0],
					"position": [0, 0, "-0.2-math.sin(q.anim_time*90*1)*0.1"]
				},
				"tuft": {
					"rotation": ["15+math.sin(q.anim_time*90*1-90)*4", 0, 0]
				},
				"tuft2": {
					"rotation": ["-21.9852+math.sin(q.anim_time*90*1-135)*4", 10.12903, -7.59794]
				},
				"fluff_right": {
					"rotation": [0, 0, -2.5]
				},
				"fluff_left": {
					"rotation": [0, 0, 2.5]
				},
				"jaw": {
					"position": {
						"0.0": [0, 0, 0],
						"2.0833": [0, 0, 0],
						"2.375": [0, -0.3, 0],
						"3.9583": [0, 0, 0]
					}
				},
				"leg_right": {
					"position": [0, 1, 0]
				},
				"leg_left": {
					"position": [0, 1, 0]
				}
			}
		},
		"animation.pumpkaboo.blink": {
			"animation_length": 0.16667,
			"bones": {
				"eyelid_right": {
					"position": {
						"0.0": [0, 0, -0.1],
						"0.125": [0, 0, -0.1],
						"0.1667": [0, 0, 0]
					}
				},
				"eyelid_left": {
					"position": {
						"0.0": [0, 0, -0.1],
						"0.125": [0, 0, -0.1],
						"0.1667": [0, 0, 0]
					}
				}
			}
		}
	},
	"geckolib_format_version": 2
}