{
	"format_version": "1.8.0",
	"animations": {
		"animation.whiscash.water_idle": {
			"loop": true,
			"bones": {
				"tail": {
					"rotation": [0, 0, 0]
				},
				"tail2": {
					"rotation": [5, 0, 0]
				},
				"tail3": {
					"rotation": [5, 0, 0]
				},
				"tail4": {
					"rotation": [5, 0, 0]
				},
				"jaw": {
					"position": [0, -1, 0]
				},
				"mouth_opening": {
					"position": [0, 0, 0]
				},
				"dangle_left": {
					"rotation": [15, 0, -15]
				},
				"dangle_right": {
					"rotation": [15, 0, 15]
				},
				"fin_left": {
					"rotation": [0, 0, 12.5]
				},
				"fin_left2": {
					"rotation": [0, 0, 17.5]
				},
				"fin_right": {
					"rotation": [0, 0, -12.5]
				},
				"fin_right2": {
					"rotation": [0, 0, -17.5]
				},
				"fin_left3": {
					"rotation": [-1.63219, -7.32123, 12.60443]
				},
				"fin_right3": {
					"rotation": [-1.63219, 7.32123, -12.60443]
				},
				"whisker_left": {
					"rotation": [0, -30, 0]
				},
				"whisker_left2": {
					"rotation": [16.0129, -37.15855, -25.41377]
				},
				"whisker_left3": {
					"rotation": [7.98205, -23.7695, -19.18246]
				},
				"whisker_left4": {
					"rotation": [-4.30963, -29.7174, 8.64388]
				},
				"whisker_left5": {
					"rotation": [-6.1191, -21.69365, 16.17354]
				},
				"whisker_left6": {
					"rotation": [0, 0, 12.5]
				},
				"whisker_right": {
					"rotation": [0, 30, 0]
				},
				"whisker_right2": {
					"rotation": [16.0129, 37.15855, 25.41377]
				},
				"whisker_right3": {
					"rotation": [7.98205, 23.7695, 19.18246]
				},
				"whisker_right4": {
					"rotation": [-4.30963, 29.7174, -8.64388]
				},
				"whisker_right5": {
					"rotation": [-6.1191, 21.69365, -16.17354]
				},
				"whisker_right6": {
					"rotation": [0, 0, -12.5]
				}
			}
		},
		"animation.whiscash.blink": {
			"animation_length": 0.1667,
			"bones": {
				"eyelid_left": {
					"position": {
						"0.0": [0.1, 0, -0.1],
						"0.125": [0.1, 0, -0.1],
						"0.1667": [0, 0, 0]
					}
				},
				"eyelid_right": {
					"position": {
						"0.0": [-0.1, 0, -0.1],
						"0.125": [-0.1, 0, -0.1],
						"0.1667": [0, 0, 0]
					}
				}
			}
		},
		"animation.whiscash.cry": {
			"animation_length": 1.5,
			"bones": {
				"neck": {
					"rotation": {
						"0.0": [0, 0, 0],
						"0.25": [10, 0, 0],
						"1.25": [10, 0, 0],
						"1.5": [0, 0, 0]
					}
				},
				"head": {
					"rotation": {
						"0.0": [0, 0, 0],
						"0.25": [-15, 0, 0],
						"1.25": [-15, 0, 0],
						"1.5": [0, 0, 0]
					}
				},
				"jaw": {
					"position": {
						"0.0": [0, 0, 0],
						"0.25": [0, -5, 0],
						"1.25": [0, -5, 0],
						"1.5": [0, 0, 0]
					}
				},
				"mouth_opening": {
					"position": {
						"0.0": [0, 0, 0],
						"0.25": [0, 3, 0],
						"1.25": [0, 3, 0],
						"1.5": [0, 0, 0]
					}
				}
			}
		}
	}
}