{
	"credit": "Made with Blockbench by dhi_holo @holo_modeller",
	"textures": {
		"body": "Pokemon Cobbled:block/healer",
		"back": "Pokemon Cobbled:block/healer_2",
		"healer_chargebar": "Pokemon Cobbled:block/healer_25",
		"particle": "block/iron_block"
	},
	"elements": [
		{
			"name": "healer_charge_meter",
			"from": [4, 4, 0],
			"to": [12, 8, 0],
			"rotation": {"angle": 0, "axis": "y", "origin": [4, 0, 0]},
			"faces": {
				"north": {"uv": [0, 8, 16, 16], "texture": "#healer_chargebar"}
			}
		},
		{
			"name": "main",
			"from": [1, 0, 0],
			"to": [15, 11, 2],
			"faces": {
				"north": {"uv": [1, 8.5, 8, 14], "texture": "#body"},
				"east": {"uv": [0, 8.5, 1, 14], "texture": "#body"},
				"south": {"uv": [9, 8.5, 16, 14], "texture": "#body"},
				"west": {"uv": [8, 8.5, 9, 14], "texture": "#body"},
				"up": {"uv": [8, 8.5, 1, 7.5], "texture": "#body"},
				"down": {"uv": [8, 14, 1, 15], "texture": "#body"}
			}
		},
		{
			"name": "curve",
			"from": [2, 11, 0],
			"to": [14, 12, 2],
			"faces": {
				"north": {"uv": [1.5, 7, 7.5, 7.5], "texture": "#body"},
				"east": {"uv": [0, 7, 1, 7.5], "texture": "#body"},
				"south": {"uv": [9.5, 7, 15.5, 7.5], "texture": "#body"},
				"west": {"uv": [8, 7, 9, 7.5], "texture": "#body"},
				"up": {"uv": [7.5, 7, 1.5, 6], "texture": "#body"}
			}
		},
		{
			"name": "iron",
			"from": [3, 0, 0.025],
			"to": [13, 10, 2.025],
			"rotation": {"angle": 0, "axis": "y", "origin": [3, 0, 0]},
			"faces": {
				"north": {"uv": [3, 6, 13, 16], "texture": "#particle"},
				"down": {"uv": [14, 3, 16, 13], "rotation": 90, "texture": "#particle"}
			}
		},
		{
			"name": "east",
			"from": [13.5, 1, 2],
			"to": [14.5, 9, 14],
			"faces": {
				"east": {"uv": [2, 6, 14, 14], "texture": "#particle"},
				"up": {"uv": [0.5, 6, 0, 0], "texture": "#body"},
				"down": {"uv": [2, 13, 14, 14], "rotation": 90, "texture": "#particle"}
			}
		},
		{
			"name": "ground",
			"from": [2.5, 0, 2],
			"to": [13.5, 1, 14],
			"rotation": {"angle": 0, "axis": "y", "origin": [2, 0, 0]},
			"faces": {
				"east": {"uv": [2, 2, 14, 3], "texture": "#particle"},
				"west": {"uv": [2, 13, 14, 14], "rotation": 180, "texture": "#particle"},
				"down": {"uv": [2, 2.5, 14, 13.5], "rotation": 90, "texture": "#particle"}
			}
		},
		{
			"name": "tray",
			"from": [2.5, 9, 2],
			"to": [13.5, 10, 14],
			"rotation": {"angle": 0, "axis": "y", "origin": [2, 9, 0]},
			"faces": {
				"east": {"uv": [0.5, 0, 1, 6], "rotation": 270, "texture": "#body"},
				"west": {"uv": [6.5, 0, 7, 6], "rotation": 90, "texture": "#body"},
				"up": {"uv": [6.5, 6, 1, 0], "texture": "#body"}
			}
		},
		{
			"name": "west",
			"from": [1.5, 1, 2],
			"to": [2.5, 9, 14],
			"faces": {
				"west": {"uv": [2, 6, 14, 14], "texture": "#particle"},
				"up": {"uv": [7.5, 6, 7, 0], "texture": "#body"},
				"down": {"uv": [2, 13, 14, 14], "rotation": 270, "texture": "#particle"}
			}
		},
		{
			"name": "healer_charge_meter",
			"from": [4, 11, 13.975],
			"to": [12, 15, 13.975],
			"rotation": {"angle": 0, "axis": "y", "origin": [4, 0, 0]},
			"faces": {
				"north": {"uv": [0, 0, 16, 8], "texture": "#healer_chargebar"}
			}
		},
		{
			"name": "main",
			"from": [1, 0, 14],
			"to": [15, 14, 16],
			"rotation": {"angle": 0, "axis": "y", "origin": [1, 0, 0]},
			"faces": {
				"north": {"uv": [1, 1, 8, 8], "texture": "#back"},
				"east": {"uv": [0, 1, 1, 8], "texture": "#back"},
				"south": {"uv": [9, 1, 16, 8], "texture": "#back"},
				"west": {"uv": [8, 1, 9, 8], "texture": "#back"},
				"up": {"uv": [8, 1, 1, 0], "texture": "#back"},
				"down": {"uv": [8, 9, 1, 8], "texture": "#back"}
			}
		},
		{
			"name": "curve",
			"from": [3, 14, 14],
			"to": [13, 16, 16],
			"rotation": {"angle": 0, "axis": "y", "origin": [1, 0, 0]},
			"faces": {
				"north": {"uv": [9.5, 1, 14.5, 2], "texture": "#body"},
				"east": {"uv": [8.5, 1, 9.5, 2], "texture": "#body"},
				"south": {"uv": [9.5, 3, 14.5, 4], "texture": "#body"},
				"west": {"uv": [14.5, 1, 15.5, 2], "texture": "#body"},
				"up": {"uv": [14.5, 1, 9.5, 0], "texture": "#body"}
			}
		},
		{
			"name": "iron",
			"from": [3, 0, 14.025],
			"to": [13, 14, 15.975],
			"rotation": {"angle": 0, "axis": "y", "origin": [3, 0, 14]},
			"faces": {
				"south": {"uv": [3, 2, 13, 16], "texture": "#particle"},
				"down": {"uv": [0, 3, 2, 13], "rotation": 90, "texture": "#particle"}
			}
		}
	],
	"groups": [
		{
			"name": "foot",
			"origin": [0, 0, 0],
			"color": 0,
			"children": [0, 1, 2, 3]
		},
		{
			"name": "tray",
			"origin": [0, 0, 0],
			"color": 0,
			"children": [4, 5, 6, 7]
		},
		{
			"name": "head",
			"origin": [8, 8, 8],
			"color": 0,
			"children": [8, 9, 10, 11]
		}
	]
}