{
	"format_version": "1.8.0",
	"animations": {
		"animation.sharpedo.water_idle": {
			"loop": true,
			"bones": {
				"body": {
					"rotation": [0, "1-1*math.sin(q.anim_time*90*2+90)", 0]
				},
				"fin_left": {
					"rotation": [0, 0, "1+4*math.sin(q.anim_time*90*2+90)"]
				},
				"fin_right": {
					"rotation": [0, 0, "1-4*math.sin(q.anim_time*90*2+90)"]
				}
			}
		}
	}
}