{
	"format_version": "1.8.0",
	"animations": {
		"animation.sobble.ground_idle": {
			"loop": true,
			"bones": {
				"torso": {
					"rotation": ["-5+math.sin(q.anim_time*90*4)*1", 0, "math.sin(q.anim_time*90*2)*1"]
				},
				"neck": {
					"rotation": ["-2.5+math.sin(q.anim_time*90*4-90)*0.5", 0, 0]
				},
				"head": {
					"rotation": ["-12.5+math.sin(q.anim_time*90*4-180)*1", 0, 0],
					"position": [0, -0.5, 0]
				},
				"arm_left": {
					"rotation": [-12.46265, 33.6163, "45.0163+math.sin(q.anim_time*90*4-90)*2"],
					"position": [0, 0, -1]
				},
				"arm_left2": {
					"rotation": [0.87038, 4.92385, 22.53742]
				},
				"hand_left": {
					"rotation": [0, 0, 42.5]
				},
				"hand_left2": {
					"rotation": [0, 0, -27.5]
				},
				"arm_right": {
					"rotation": [-17.36719, -28.5151, "-43.8038-math.sin(q.anim_time*90*4-90)*2"],
					"position": [0, 0, -1]
				},
				"arm_right2": {
					"rotation": [0.65426, -4.95712, -27.52832]
				},
				"hand_right": {
					"rotation": [0, 0, -27.5]
				},
				"hand_right2": {
					"rotation": [0, 0, 27.5]
				},
				"tail": {
					"rotation": ["12.3254+math.sin(q.anim_time*90*4-90)*2", "6.9262+math.sin(q.anim_time*90*4-45)*3", -2.88419]
				},
				"tail2": {
					"rotation": [0, "15+math.sin(q.anim_time*90*4-135)*5", 0]
				},
				"body": {
					"rotation": [27.5, 0, 0],
					"position": [0, "0.2-math.sin(q.anim_time*90*4-90)*0.07", 0]
				},
				"leg_left": {
					"rotation": [-42.60492, 18.34824, "-41.2335-math.sin(q.anim_time*90*4-90)*2"],
					"position": ["math.sin(q.anim_time*90*4-90)*0.1", 0, 0]
				},
				"leg_left3": {
					"rotation": [0, "math.sin(q.anim_time*90*4-90)*1", "60+math.sin(q.anim_time*90*4-90)*2.3"]
				},
				"feet_left": {
					"rotation": [0, 0, 5]
				},
				"leg_left2": {
					"rotation": [0, 0, 52.5]
				},
				"leg_right": {
					"rotation": [-41.09708, -16.66017, "39.6254+math.sin(q.anim_time*90*4-90)*2"],
					"position": ["-math.sin(q.anim_time*90*4-90)*0.1", 0, 0]
				},
				"leg_right2": {
					"rotation": [0, 0, -52.5]
				},
				"leg_right3": {
					"rotation": [0, "-math.sin(q.anim_time*90*4-90)*1", "-60-math.sin(q.anim_time*90*4-90)*2.3"]
				},
				"feet_right": {
					"rotation": [0, 0, -5]
				},
				"tear_left": {
					"position": [0, 0, 0.1]
				},
				"tear_left2": {
					"position": [0, 2, 0]
				},
				"tear_left3": {
					"position": [0, 2, 0]
				},
				"tear_left4": {
					"position": [0, 2, 0]
				},
				"tear_left5": {
					"position": [0, 2, 0]
				},
				"tear_right": {
					"position": [0, 0, 0.1]
				},
				"tear_right2": {
					"position": [0, 2, 0]
				},
				"tear_right3": {
					"position": [0, 2, 0]
				},
				"tear_right4": {
					"position": [0, 2, 0]
				},
				"tear_right5": {
					"position": [0, 2, 0]
				},
				"fin": {
					"rotation": [0, "25+math.sin(q.anim_time*90*2-135)*2", 5]
				},
				"fin2": {
					"rotation": [0, 0, 0]
				}
			}
		},
		"animation.sobble.ground_walk": {
			"loop": true,
			"animation_length": 2,
			"bones": {
				"torso": {
					"rotation": ["25+math.sin(q.anim_time*90*16)*2", 0, 0]
				},
				"neck": {
					"rotation": ["-7.5-math.sin(q.anim_time*90*16)*2", 0, 0]
				},
				"head": {
					"rotation": ["-12.5+math.sin(q.anim_time*90*16-90)*1", 0, 0],
					"position": [0, -0.5, 0]
				},
				"arm_left": {
					"rotation": [-38.29149, "50-math.sin(q.anim_time*90*8)*12", "15+math.sin(q.anim_time*90*8)*12"],
					"position": [0, 0, -1]
				},
				"arm_left2": {
					"rotation": [0.87038, "4.9238+math.clamp(math.sin(q.anim_time*90*8-90)*35,0,180)", 22.53742]
				},
				"hand_left": {
					"rotation": [0, 0, 42.5]
				},
				"hand_left2": {
					"rotation": [0, 0, -27.5]
				},
				"arm_right": {
					"rotation": [-26.61435, "-50-math.sin(q.anim_time*90*8)*12", "-15+math.sin(q.anim_time*90*8)*12"],
					"position": [0, 0, -1]
				},
				"arm_right2": {
					"rotation": [0.65426, "-4.9571-math.clamp(math.sin(q.anim_time*90*8+90)*35,0,180)", -27.52832]
				},
				"hand_right": {
					"rotation": [0, 0, -27.5]
				},
				"hand_right2": {
					"rotation": [0, 0, 27.5]
				},
				"tail": {
					"rotation": ["math.sin(q.anim_time*90*8-90)*3", "math.sin(q.anim_time*90*8-45)*10", 0],
					"position": [0, 0, 0]
				},
				"tail2": {
					"rotation": [0, "math.sin(q.anim_time*90*8-135)*5", 0],
					"position": [0, 0, 0.2]
				},
				"body": {
					"rotation": [27.5, 0, 0],
					"position": [0, "0.2-math.sin(q.anim_time*90*16-90)*0.07", 3]
				},
				"leg_left": {
					"rotation": [
						"-25.4405-math.sin(q.anim_time*90*8)*12",
						"-10.5829+math.sin(q.anim_time*90*8)*12",
						"-22.1585-math.clamp(math.sin(q.anim_time*90*8+90)*16,0,180)"
					]
				},
				"leg_left3": {
					"rotation": [0, 0, "60+math.clamp(math.sin(q.anim_time*90*8+90)*15,0,180)"]
				},
				"feet_left": {
					"rotation": [0, 0, 5]
				},
				"leg_left2": {
					"rotation": [0, 0, 52.5]
				},
				"leg_right": {
					"rotation": [
						"-25.4405+math.sin(q.anim_time*90*8)*12",
						"10.5829+math.sin(q.anim_time*90*8)*12",
						"22.1585+math.clamp(math.sin(q.anim_time*90*8-90)*16,0,180)"
					]
				},
				"leg_right2": {
					"rotation": [0, 0, -52.5]
				},
				"leg_right3": {
					"rotation": [0, 0, "-60-math.clamp(math.sin(q.anim_time*90*8-90)*15,0,180)"]
				},
				"feet_right": {
					"rotation": [0, 0, -5]
				},
				"tear_left": {
					"position": [0, 0, 0.1]
				},
				"tear_left2": {
					"position": [0, 2, 0]
				},
				"tear_left3": {
					"position": [0, 2, 0]
				},
				"tear_left4": {
					"position": [0, 2, 0]
				},
				"tear_left5": {
					"position": [0, 2, 0]
				},
				"tear_right": {
					"position": [0, 0, 0.1]
				},
				"tear_right2": {
					"position": [0, 2, 0]
				},
				"tear_right3": {
					"position": [0, 2, 0]
				},
				"tear_right4": {
					"position": [0, 2, 0]
				},
				"tear_right5": {
					"position": [0, 2, 0]
				},
				"fin": {
					"rotation": [-7.5, "15+math.sin(q.anim_time*90*8-135)*2", "0+math.sin(q.anim_time*90*8-135)*4"]
				},
				"fin2": {
					"rotation": [0, 0, "math.sin(q.anim_time*90*8+90)*8"]
				},
				"pupil_left": {
					"position": [0, 0.5, 0]
				},
				"pupil_right": {
					"position": [0, 0.5, 0]
				}
			}
		},
		"animation.sobble.blink": {
			"animation_length": 0.16667,
			"bones": {
				"eyelid_left": {
					"position": {
						"0.0": [0, 0, -0.1],
						"0.125": [0, 0, -0.1],
						"0.1667": [0, 0, 0]
					}
				},
				"eyelid_right": {
					"position": {
						"0.0": [0, 0, -0.1],
						"0.125": [0, 0, -0.1],
						"0.1667": [0, 0, 0.1]
					}
				}
			}
		},
		"animation.sobble.cry": {
			"animation_length": 1.75,
			"bones": {
				"neck": {
					"rotation": {
						"0.0": [0, 0, 0],
						"0.25": ["0+math.sin(q.anim_time*90*6+45)*4", 0, 0],
						"0.3333": ["-5+math.sin(q.anim_time*90*3+95)*4", 0, 0],
						"1.0": ["-5+math.sin(q.anim_time*90*3)*2", 0, 0],
						"1.5": [0, 0, 0]
					}
				},
				"head": {
					"rotation": {
						"0.0": [0, 0, 0],
						"0.25": ["0+math.sin(q.anim_time*90*6+45)*4", 0, 0],
						"0.3333": ["-5+math.sin(q.anim_time*90*3+95)*4", 0, 0],
						"1.0": ["-5+math.sin(q.anim_time*90*3)*2", 0, 0],
						"1.5": [0, 0, 0]
					}
				},
				"eyelid_left": {
					"position": {
						"0.0": [0, 0, 0],
						"0.0417": [0, 0, -0.1],
						"0.2083": [0, 0, -0.1],
						"0.25": [0, 0, 0]
					}
				},
				"eyelid_right": {
					"position": {
						"0.0": [0, 0, 0],
						"0.0417": [0, 0, -0.1],
						"0.2083": [0, 0, -0.1],
						"0.25": [0, 0, 0]
					}
				},
				"mouth_closed": {
					"position": {
						"0.25": [0, 0, 0],
						"0.3333": [0, 0, 0.1],
						"1.1667": [0, 0, 0.1],
						"1.25": [0, 0, 0]
					}
				},
				"mouth_open": {
					"position": {
						"0.0": [0, 0, 0],
						"0.25": [0, 0, -0.1],
						"1.25": [0, 0, -0.1],
						"1.5": [0, 0, 0]
					}
				}
			}
		}
	}
}