{
	"credit": "Made with Blockbench",
	"textures": {
		"9": "block/ragecandybar"
	},
	"elements": [
		{
			"from": [-3, 0, 9.5],
			"to": [3, 2, 13.5],
			"rotation": {"angle": 45, "axis": "y", "origin": [0, 0, 0]},
			"faces": {
				"north": {"uv": [6, 0, 12, 2], "texture": "#9"},
				"east": {"uv": [6, 2, 9, 4], "texture": "#9"},
				"south": {"uv": [6, 0, 12, 2], "texture": "#9"},
				"west": {"uv": [6, 2, 9, 4], "texture": "#9"},
				"up": {"uv": [6, 4, 0, 0], "texture": "#9"},
				"down": {"uv": [6, 4, 0, 8], "texture": "#9"}
			}
		}
	],
	"display": {
		"thirdperson_righthand": {
			"translation": [-1.75, 6.5, 0]
		},
		"thirdperson_lefthand": {
			"translation": [-1.75, 6.5, 0],
			"scale": [-1, 1, 1]
		},
		"firstperson_righthand": {
			"rotation": [0, 45, 0],
			"translation": [0, 7.25, 0]
		},
		"firstperson_lefthand": {
			"rotation": [0, -45, 0],
			"translation": [0, 7.25, 0]
		},
		"ground": {
			"translation": [0, 4.5, 0]
		},
		"gui": {
			"rotation": [90, 0, 0],
			"scale": [1.7, 1.7, 1.7]
		},
		"head": {
			"translation": [0, 14.5, 0]
		},
		"fixed": {
			"rotation": [-90, -45, 0],
			"translation": [0, -0.25, -8],
			"scale": [2, 1, 2]
		}
	},
	"groups": [
		{
			"name": "Rage Candy Bar",
			"origin": [0, 0, 0],
			"color": 0,
			"children": [0]
		}
	]
}