{
	"format_version": "1.8.0",
	"animations": {
		"animation.teddiursa.ground_idle": {
			"loop": true,
			"bones": {
				"body": {
					"rotation": ["Math.cos((query.anim_time-0.5) * 90 * 4) * 1", "Math.cos((query.anim_time-0.1) * 90 * 2) * 2", 0]
				},
				"torso": {
					"rotation": ["Math.cos((query.anim_time-0.5) * 90 * 4) * 1", "Math.cos((query.anim_time-0.1) * 90 * 2) * 2", 0]
				},
				"head": {
					"rotation": ["6+Math.cos((query.anim_time-0.2) * 90 * 4) * -2", "Math.cos((query.anim_time-1) * 90 * 2) * 2", 0]
				},
				"closed_right": {
					"position": [0, 0, 1]
				},
				"right_leg": {
					"rotation": [0, 17.5, 0],
					"position": [0, 0, -1]
				},
				"arm_left": {
					"rotation": [0, "-Math.cos((query.anim_time-0.2) * 90 * 2) * -2", "50+Math.cos((query.anim_time-0.2) * 90 * 4) * -2"],
					"position": [0, 0.5, 0]
				},
				"elbow_left": {
					"rotation": [0, 0, "3+Math.cos((query.anim_time-0.2) * 90 * 4) * -2"]
				},
				"ears": {
					"rotation": ["Math.cos((query.anim_time-0.2) * 90 * 4) * -2", 0, 0]
				},
				"left_fingies": {
					"rotation": [0, 0, 27.5]
				},
				"openedmouth": {
					"position": [0, 0, 1]
				},
				"tail": {
					"rotation": ["-1-Math.cos((query.anim_time-0.2) * 90 * 4) * -2", 0, 0]
				},
				"arm_right": {
					"rotation": [-92, "-58+Math.cos((query.anim_time-0.2) * 90 * 2) * -2", "-32+Math.cos((query.anim_time-0.2) * 90 * 4) * -2"],
					"position": [-0.5, 0, -1]
				},
				"elbow_right": {
					"rotation": [0, 0, "-58-Math.cos((query.anim_time-0.2) * 90 * 4) * -2"]
				},
				"left_leg": {
					"rotation": [0, -17.5, 0],
					"position": [0, 0, -1]
				}
			}
		},
		"animation.teddiursa.ground_walk": {
			"loop": true,
			"bones": {
				"body": {
					"rotation": [
						"Math.cos((query.anim_time-0.5) * 90 * 6) * 1",
						"Math.cos((query.anim_time-0) * 90 * 3) * 3",
						"-Math.cos((query.anim_time-0.5) * 90 * 3) * 4"
					]
				},
				"torso": {
					"rotation": ["5+Math.cos((query.anim_time-0.5) * 90 * 6) * 1", 0, "Math.cos((query.anim_time-0.5) * 90 * 3) * 2"]
				},
				"head": {
					"rotation": [
						"-3+Math.cos((query.anim_time-0.6) * 90 * 6) * 1",
						"-Math.cos((query.anim_time-0.2) * 90 * 3) * 1",
						"Math.cos((query.anim_time-0.2) * 90 * 3) * 3"
					]
				},
				"openedmouth": {
					"position": [0, 0, 1]
				},
				"ears": {
					"rotation": ["2*Math.cos((query.anim_time-0.2) * 90 * 6) * -1", 0, 0]
				},
				"closed_right": {
					"position": [0, 0, 1]
				},
				"arm_left": {
					"rotation": [0, "Math.cos((query.anim_time-0.2) * 90 * 3) * -25", "50-Math.cos((query.anim_time-0.2) * 90 * 6) * -2"],
					"position": [0, 0.5, 0]
				},
				"elbow_left": {
					"rotation": [0, 0, "2-Math.cos((query.anim_time-0.2) * 90 * 3) * 2"]
				},
				"tail": {
					"rotation": ["-1-Math.cos((query.anim_time-0.2) * 90 * 6) * -3", 0, 0]
				},
				"right_leg": {
					"rotation": ["-8+Math.cos((query.anim_time+0.6) * 90 * 3) * -8", 10, 0],
					"position": [0, "0.2+Math.cos((query.anim_time+0.6-0.6) * 90 * 3) * -0.2", "-1.5-Math.cos((query.anim_time-1.5) * 90 * 3) * -0.5"]
				},
				"arm_right": {
					"rotation": [0, "Math.cos((query.anim_time-0.2) * 90 * 3) * -25", "-50+Math.cos((query.anim_time-0.2) * 90 * 6) * -2"],
					"position": [0, 0.5, 0]
				},
				"elbow_right": {
					"rotation": [0, 0, "-2+Math.cos((query.anim_time-0.2) * 90 * 3) * 2"]
				},
				"left_leg": {
					"rotation": ["-8+Math.cos((query.anim_time+0) * 90 * 3) * -8", -10, 0],
					"position": [0, "0.2-Math.cos((query.anim_time+0.6-0.6) * 90 * 3) * -0.2", "-1.5+Math.cos((query.anim_time-0.5) * 90 * 3) * -0.5"]
				}
			}
		},
		"animation.teddiursa.sleep": {
			"loop": true,
			"bones": {
				"body": {
					"rotation": ["2.5+Math.cos((query.anim_time-0.5) * 90 * 2) * 1", "0+Math.cos((query.anim_time-0.1) * 90 * 1) * 2", 0]
				},
				"torso": {
					"rotation": ["20+Math.cos((query.anim_time-0.5) * 90 * 1) * 1", "0+Math.cos((query.anim_time-0.1) * 90 * 1) * 2", 0]
				},
				"head": {
					"rotation": ["26-Math.cos((query.anim_time-0.2) * 90 * 1) * -2", "10-Math.cos((query.anim_time-1) * 90 * 1) * 2", 0]
				},
				"closed_right": {
					"position": [0, 0, -0.1]
				},
				"right_leg": {
					"rotation": ["27+Math.cos((query.anim_time-0.2) * 90 * 2) * -2", 28, 5]
				},
				"arm_left": {
					"rotation": [20, -43, "20-2*Math.cos((query.anim_time-0.5) * 90 * 2) * 1"]
				},
				"ears": {
					"rotation": ["Math.cos((query.anim_time-0.2) * 90 * 1) * -2", 0, 0]
				},
				"left_fingies": {
					"rotation": [0, 0, -22.5]
				},
				"openedmouth": {
					"position": [0, 0, -0.1]
				},
				"teddiursa": {
					"rotation": [-65, 0, 0],
					"position": [0, -1.75, 2]
				},
				"right_eye": {
					"position": [0, 0, 0]
				},
				"closedmouth": {
					"position": [0, 0, 1]
				},
				"tail": {
					"rotation": [122.5, 0, 0]
				},
				"closed_left": {
					"position": [0, 0, -0.1]
				},
				"arm_right": {
					"rotation": [20, 43, "-20+2*Math.cos((query.anim_time-0.5) * 90 * 2) * 1"]
				},
				"left_leg": {
					"rotation": ["27-Math.cos((query.anim_time-0.2) * 90 * 2) * -2", -28, -5]
				}
			}
		},
		"animation.teddiursa.cry": {
			"animation_length": 1.25,
			"bones": {
				"head": {
					"rotation": {
						"0.0": [0, 0, 0],
						"0.2083": [-16, 0, 0],
						"0.9167": [-16, 0, 0],
						"1.125": [0, 0, 0]
					}
				},
				"closedmouth": {
					"position": {
						"0.0": [0, 0, 0],
						"0.0417": [0, 0, 1],
						"0.875": [0, 0, 1],
						"0.9167": [0, 0, 0]
					}
				},
				"openedmouth": {
					"position": {
						"0.0": [0, 0, 0],
						"0.0417": [0, 0, -0.1],
						"0.875": [0, 0, -0.1],
						"0.9167": [0, 0, 0]
					}
				},
				"closed_right": {
					"position": [0, 0, 1]
				}
			}
		},
		"animation.teddiursa.blink": {
			"animation_length": 0.16667,
			"bones": {
				"closed_right": {
					"position": {
						"0.0": [0, 0, -0.1],
						"0.125": [0, 0, -0.1],
						"0.1667": [0, 0, 0]
					}
				},
				"closed_left": {
					"position": {
						"0.0": [0, 0, -0.1],
						"0.125": [0, 0, -0.1],
						"0.1667": [0, 0, 0]
					}
				}
			}
		}
	}
}