{
	"format_version": "1.8.0",
	"animations": {
		"animation.solrock.ground_idle": {
			"loop": true,
			"bones": {
				"body": {
					"position": [0, 4, 0]
				}
			}
		},
		"animation.solrock.sleep": {
			"loop": true,
			"bones": {
				"body": {
					"rotation": [-15, -15, -15]
				},
				"eyelid_left": {
					"position": [0, 0, -0.1]
				},
				"eyelid_right": {
					"position": [0, 0, -0.2]
				}
			}
		},
		"animation.solrock.blink": {
			"animation_length": 0.16667,
			"bones": {
				"eyelid_left": {
					"position": {
						"0.0": [0, 0, -0.1],
						"0.125": [0, 0, -0.1],
						"0.1667": [0, 0, 0]
					}
				},
				"eyelid_right": {
					"position": {
						"0.0": [0, 0, -0.1],
						"0.125": [0, 0, -0.1],
						"0.1667": [0, 0, 0]
					}
				}
			}
		}
	}
}