{
	"format_version": "1.8.0",
	"animations": {
		"animation.sirfetchd.ground_idle": {
			"loop": true,
			"bones": {
				"wing_right": {
					"rotation": ["-90+Math.cos((query.anim_time) * 90 * 1) * 3", -37.5, "0+Math.cos((query.anim_time) * 90 * 1) * -3"]
				},
				"peel": {
					"rotation": [-45, 0, 0]
				},
				"peel2": {
					"rotation": [-50, 0, 0]
				},
				"peel3": {
					"rotation": [40, 0, 0]
				},
				"peel4": {
					"rotation": [45, 0, 0]
				},
				"peel5": {
					"rotation": [0, -45, 0]
				},
				"peel6": {
					"rotation": [0, -45, 0]
				},
				"peel7": {
					"rotation": [0, 50, 0]
				},
				"peel8": {
					"rotation": [0, 30, 0]
				},
				"onion_skin": {
					"rotation": [-22.5, 0, 0]
				},
				"onion_skin2": {
					"rotation": [70, 0, 0]
				},
				"onion_skin3": {
					"rotation": [22.5, 0, 0]
				},
				"wing_right_finger": {
					"rotation": [0, 0, -97.5]
				},
				"wing_right_finger5": {
					"rotation": [0, 0, -65]
				},
				"wing_right_finger2": {
					"rotation": [0, 0, -92.5]
				},
				"wing_right_finger6": {
					"rotation": [0, 0, -45]
				},
				"wing_right_finger3": {
					"rotation": [0, 0, -97.5]
				},
				"wing_right_finger7": {
					"rotation": [0, 0, -42.5]
				},
				"wing_right_finger4": {
					"rotation": [0, 0, -97.5]
				},
				"wing_right_finger8": {
					"rotation": [0, 0, -2.5]
				},
				"wing_left": {
					"rotation": ["-90+Math.cos((query.anim_time) * 90 * 1 - 45) * 3", 37.5, "0+Math.cos((query.anim_time) * 90 * 1 - 45) * 3"]
				},
				"wing_left2": {
					"rotation": [0, 0, 72.5]
				},
				"wing_left3": {
					"rotation": [0, 0, 82.5]
				},
				"wing_left_finger": {
					"rotation": [0, 0, 32.5]
				},
				"wing_left_finger5": {
					"rotation": [0, 0, 87.5]
				},
				"wing_left_finger2": {
					"rotation": [0, 0, 27.5]
				},
				"wing_left_finger6": {
					"rotation": [0, 0, 82.5]
				},
				"wing_left_finger3": {
					"rotation": [0, 0, 30]
				},
				"wing_left_finger7": {
					"rotation": [0, 0, 80]
				},
				"wing_left_finger4": {
					"rotation": [0, 0, 37.5]
				},
				"wing_left_finger8": {
					"rotation": [0, 0, 60]
				},
				"wing_right2": {
					"rotation": [0, 0, -30]
				},
				"torso": {
					"rotation": ["0+Math.cos((query.anim_time) * 90 * 1 - 90) * -2", 0, 0],
					"position": [0, "0+Math.cos((query.anim_time) * 90 * 1) * 0.3", 0]
				},
				"head": {
					"rotation": ["0+Math.cos((query.anim_time) * 90 * 1 - 45) * 3", 0, 0]
				},
				"leg_left": {
					"rotation": [0, -15, 0]
				},
				"leg_right": {
					"rotation": [0, 15, 0]
				}
			}
		},
		"animation.sirfetchd.cry": {
			"animation_length": 1.5,
			"bones": {
				"neck": {
					"rotation": {
						"0.0": [0, 0, 0],
						"0.25": [10, 0, 0],
						"1.25": [10, 0, 0],
						"1.5": [0, 0, 0]
					}
				},
				"head": {
					"rotation": {
						"0.0": [0, 0, 0],
						"0.25": [-15, 0, 0],
						"1.25": [-15, 0, 0],
						"1.5": [0, 0, 0]
					}
				},
				"jaw": {
					"rotation": {
						"0.0": [0, 0, 0],
						"0.25": [25, 0, 0],
						"1.25": [25, 0, 0],
						"1.5": [0, 0, 0]
					}
				}
			}
		},
		"animation.sirfetchd.blink": {
			"animation_length": 0.16667,
			"bones": {
				"eyelid_left": {
					"position": {
						"0.0": [-0.1, 0, -0.1],
						"0.125": [-0.1, 0, -0.1],
						"0.1667": [0, 0, 0]
					}
				},
				"eyelid_right": {
					"position": {
						"0.0": [0.1, 0, -0.1],
						"0.125": [0.1, 0, -0.1],
						"0.1667": [0, 0, 0]
					}
				}
			}
		},
		"animation.sirfetchd.quirk": {
			"animation_length": 2,
			"bones": {
				"wing_right": {
					"rotation": {
						"0.0": [-90, -37.5, 0],
						"0.125": {
							"pre": [-80, -37.5, -10.5],
							"post": [-80, -37.5, -10.5],
							"lerp_mode": "catmullrom"
						},
						"0.25": {
							"post": [-115, -37.5, 18],
							"lerp_mode": "catmullrom"
						},
						"0.3333": {
							"post": [-90, -37.5, -8.25],
							"lerp_mode": "catmullrom"
						},
						"0.4583": {
							"post": [-115, -37.5, 21],
							"lerp_mode": "catmullrom"
						},
						"0.5833": {
							"post": [-115, -37.5, 20],
							"lerp_mode": "catmullrom"
						},
						"0.6667": [-89, -37.5, 2],
						"0.8333": [-90, -37.5, 2],
						"1.0417": [-75, -37.5, -10.5],
						"1.3333": [-75, -37.5, -12.5],
						"1.4583": [-85, -37.5, -5],
						"1.6667": [-90, -37.5, 0]
					}
				},
				"peel": {
					"rotation": [-45, 0, 0]
				},
				"peel2": {
					"rotation": [-50, 0, 0]
				},
				"peel3": {
					"rotation": [40, 0, 0]
				},
				"peel4": {
					"rotation": [45, 0, 0]
				},
				"peel5": {
					"rotation": [0, -45, 0]
				},
				"peel6": {
					"rotation": [0, -45, 0]
				},
				"peel7": {
					"rotation": [0, 50, 0]
				},
				"peel8": {
					"rotation": [0, 30, 0]
				},
				"onion_skin": {
					"rotation": [-22.5, 0, 0]
				},
				"onion_skin2": {
					"rotation": {
						"0.0": [87.5, 0, 0],
						"0.2083": [62.5, 0, 0],
						"0.2917": [102.5, 0, 0],
						"0.375": [77.5, 0, 0],
						"0.5": [73.75, 0, 0],
						"0.625": [105, 0, 0],
						"0.8333": [112.5, 0, 0],
						"1.4167": [82.5, 0, 0],
						"1.8333": [87.5, 0, 0]
					}
				},
				"onion_skin3": {
					"rotation": {
						"0.0": [22.5, 0, 0],
						"0.25": [-25, 0, 0],
						"0.2917": [37.5, 0, 0],
						"0.4167": [-20, 0, 0],
						"0.6667": [25, 0, 0],
						"0.9583": [-10, 0, 0],
						"1.4167": [10, 0, 0],
						"1.8333": [22.5, 0, 0]
					}
				},
				"wing_right_finger": {
					"rotation": [0, 0, -97.5]
				},
				"wing_right_finger5": {
					"rotation": [0, 0, -65]
				},
				"wing_right_finger2": {
					"rotation": [0, 0, -92.5]
				},
				"wing_right_finger6": {
					"rotation": [0, 0, -45]
				},
				"wing_right_finger3": {
					"rotation": [0, 0, -97.5]
				},
				"wing_right_finger7": {
					"rotation": [0, 0, -42.5]
				},
				"wing_right_finger4": {
					"rotation": [0, 0, -97.5]
				},
				"wing_right_finger8": {
					"rotation": [0, 0, -2.5]
				},
				"wing_left": {
					"rotation": {
						"0.0": [-90, 40, 0],
						"0.0833": {
							"pre": [-117.5, 30, 0],
							"post": [-117.5, 30, 0],
							"lerp_mode": "catmullrom"
						},
						"0.25": {
							"post": [-90, 48, -10],
							"lerp_mode": "catmullrom"
						},
						"0.375": {
							"post": [-90, 53, -7.5],
							"lerp_mode": "catmullrom"
						},
						"0.9583": {
							"post": [-90, 49.25, -24.5],
							"lerp_mode": "catmullrom"
						},
						"1.0833": {
							"post": [-90, 37.5, 1],
							"lerp_mode": "catmullrom"
						},
						"1.3333": {
							"post": [-95, 17.5, 1],
							"lerp_mode": "catmullrom"
						},
						"1.7083": [-90.23, 37.99, 0.04],
						"1.9167": [-90, 40, 0]
					}
				},
				"wing_left2": {
					"rotation": [0, 0, 72.5]
				},
				"wing_left3": {
					"rotation": [0, 0, 82.5]
				},
				"wing_left_finger": {
					"rotation": [0, 0, 32.5]
				},
				"wing_left_finger5": {
					"rotation": [0, 0, 87.5]
				},
				"wing_left_finger2": {
					"rotation": [0, 0, 27.5]
				},
				"wing_left_finger6": {
					"rotation": [0, 0, 82.5]
				},
				"wing_left_finger3": {
					"rotation": [0, 0, 30]
				},
				"wing_left_finger7": {
					"rotation": [0, 0, 80]
				},
				"wing_left_finger4": {
					"rotation": [0, 0, 37.5]
				},
				"wing_left_finger8": {
					"rotation": [0, 0, 60]
				},
				"wing_right2": {
					"rotation": [0, 0, -30]
				},
				"torso": {
					"rotation": {
						"0.0": [0, 0, 0],
						"0.125": [7.5, 0, 0],
						"0.25": {
							"pre": [-2.5, 0, 0],
							"post": [-2.5, 0, 0],
							"lerp_mode": "catmullrom"
						},
						"0.4167": {
							"post": [-4, 0, 0],
							"lerp_mode": "catmullrom"
						},
						"0.625": {
							"post": [-2.5, 2.75, 0],
							"lerp_mode": "catmullrom"
						},
						"0.8333": {
							"post": [0, 3.75, 0],
							"lerp_mode": "catmullrom"
						},
						"1.0": {
							"post": [5, 0, 0],
							"lerp_mode": "catmullrom"
						},
						"1.1667": {
							"post": [-7.5, -2.75, 0],
							"lerp_mode": "catmullrom"
						},
						"1.4167": {
							"post": [-10, -2.25, 0],
							"lerp_mode": "catmullrom"
						},
						"1.75": {
							"post": [-1.75, -0.5, 0],
							"lerp_mode": "catmullrom"
						},
						"1.875": [0, 0, 0]
					},
					"position": {
						"0.0": [0, 0, 0],
						"0.0417": [0, -0.75, 0],
						"0.125": {
							"pre": [0, 0, 0],
							"post": [0, 0, 0],
							"lerp_mode": "catmullrom"
						},
						"0.2083": {
							"post": [0, 0.25, 0],
							"lerp_mode": "catmullrom"
						},
						"0.2917": {
							"post": [0, -0.75, 0],
							"lerp_mode": "catmullrom"
						},
						"0.375": {
							"post": [0, 0, 0],
							"lerp_mode": "catmullrom"
						},
						"0.4583": {
							"post": [0, 0.25, 0],
							"lerp_mode": "catmullrom"
						},
						"0.5417": {
							"post": [0, -0.5, 0],
							"lerp_mode": "catmullrom"
						},
						"0.7917": {
							"post": [0, -1, 0],
							"lerp_mode": "catmullrom"
						},
						"0.9167": {
							"post": [0, -1, 0],
							"lerp_mode": "catmullrom"
						},
						"1.0": {
							"post": [0, 0, 0],
							"lerp_mode": "catmullrom"
						},
						"1.125": {
							"post": [0, 0.25, 0],
							"lerp_mode": "catmullrom"
						},
						"1.2917": {
							"post": [0, 0.25, 0],
							"lerp_mode": "catmullrom"
						},
						"1.4583": {
							"post": [0, 0, 0],
							"lerp_mode": "catmullrom"
						},
						"1.6667": [0, 0, 0]
					}
				},
				"neck": {
					"position": {
						"0.0": [0, -3.5, 0],
						"2.0": {"pre": [0, -3.5, 0], "post": [0, 0, 0]}
					}
				},
				"head": {
					"rotation": {
						"0.0": [0, 0, 0],
						"0.125": [10, 0, 0],
						"0.25": [-2.5, 0, 0],
						"0.2917": {
							"pre": [-7.5, 0, 0],
							"post": [-7.5, 0, 0],
							"lerp_mode": "catmullrom"
						},
						"0.375": {
							"post": [-13.37, 0.25, 0],
							"lerp_mode": "catmullrom"
						},
						"0.5833": {
							"post": [-13, 3.25, 0],
							"lerp_mode": "catmullrom"
						},
						"0.7917": {
							"post": [5, 11.5, 0],
							"lerp_mode": "catmullrom"
						},
						"0.9583": {
							"post": [10, 15.25, 0],
							"lerp_mode": "catmullrom"
						},
						"1.2083": [-5, -17.25, 0],
						"1.375": [-8.5, -19.75, 0],
						"1.5833": {
							"pre": [-6.52, -17.57, 0],
							"post": [-6.52, -17.57, 0],
							"lerp_mode": "catmullrom"
						},
						"1.7917": {
							"post": [-0.93, -2.51, 0],
							"lerp_mode": "catmullrom"
						},
						"1.875": [0, 0, 0]
					},
					"position": {
						"0.0": [0, 3.5, 0],
						"2.0": {"pre": [0, 3.5, 0], "post": [0, 0, 0]}
					}
				},
				"eyebrow_left": {
					"rotation": {
						"1.0": [0, 0, 0],
						"1.1667": {
							"pre": [0, 0, 12.5],
							"post": [0, 0, 12.5],
							"lerp_mode": "catmullrom"
						},
						"1.4167": {
							"post": [0, 0, 10.68],
							"lerp_mode": "catmullrom"
						},
						"1.625": [0, 0, 0]
					}
				},
				"eyebrow_right": {
					"rotation": {
						"1.0": [0, 0, 0],
						"1.1667": {
							"pre": [0, 0, -12.5],
							"post": [0, 0, -12.5],
							"lerp_mode": "catmullrom"
						},
						"1.4167": {
							"post": [0, 0, -10.68],
							"lerp_mode": "catmullrom"
						},
						"1.625": [0, 0, 0]
					}
				},
				"jaw": {
					"rotation": {
						"1.0": [0, 0, 0],
						"1.1667": {
							"pre": [22.5, 0, 0],
							"post": [22.5, 0, 0],
							"lerp_mode": "catmullrom"
						},
						"1.4583": {
							"post": [17.08, 0, 0],
							"lerp_mode": "catmullrom"
						},
						"1.6667": {
							"post": [1.21, 0, 0],
							"lerp_mode": "catmullrom"
						},
						"1.75": [0, 0, 0]
					}
				},
				"hair": {
					"rotation": {
						"0.9583": [0, 0, 0],
						"1.0833": {
							"pre": [0, 0, -10.5],
							"post": [0, 0, -10.5],
							"lerp_mode": "catmullrom"
						},
						"1.2917": {
							"post": [0, 0, 17.5],
							"lerp_mode": "catmullrom"
						},
						"1.5417": {
							"post": [0, 0, 20],
							"lerp_mode": "catmullrom"
						},
						"1.7083": {
							"post": [0, 0, 4.5],
							"lerp_mode": "catmullrom"
						},
						"1.9583": [0, 0, 0]
					}
				},
				"hair2": {
					"rotation": {
						"0.9167": [0, 0, 0],
						"1.0417": {
							"pre": [0, 0, -10.5],
							"post": [0, 0, -10.5],
							"lerp_mode": "catmullrom"
						},
						"1.25": {
							"post": [0, 0, 17.5],
							"lerp_mode": "catmullrom"
						},
						"1.5": {
							"post": [0, 0, 20],
							"lerp_mode": "catmullrom"
						},
						"1.6667": {
							"post": [0, 0, 4.5],
							"lerp_mode": "catmullrom"
						},
						"1.9167": [0, 0, 0]
					}
				},
				"hair3": {
					"rotation": {
						"1.0": [0, 0, 0],
						"1.125": {
							"pre": [0, 0, -10.5],
							"post": [0, 0, -10.5],
							"lerp_mode": "catmullrom"
						},
						"1.3333": {
							"post": [0, 0, 17.5],
							"lerp_mode": "catmullrom"
						},
						"1.5833": {
							"post": [0, 0, 20],
							"lerp_mode": "catmullrom"
						},
						"1.75": {
							"post": [0, 0, 4.5],
							"lerp_mode": "catmullrom"
						},
						"2.0": [0, 0, 0]
					}
				},
				"eyelid_right": {
					"position": {
						"0.0": [0, 0, 0],
						"0.0417": {"pre": [0, 0, 0], "post": [0.1, 0, -0.1]},
						"0.125": {"pre": [0.1, 0, -0.1], "post": [0, 0, 0]},
						"1.0": {"pre": [0, 0, 0], "post": [0.1, 0, -0.1]},
						"1.625": {"pre": [0.1, 0, -0.1], "post": [0, 0, 0]}
					}
				},
				"eyelid_left": {
					"position": {
						"0.0": [0, 0, 0],
						"0.0417": {"pre": [0, 0, 0], "post": [-0.1, 0, -0.1]},
						"0.125": {"pre": [-0.1, 0, -0.1], "post": [0, 0, 0]},
						"1.0": {"pre": [0, 0, 0], "post": [-0.1, 0, -0.1]},
						"1.625": {"pre": [-0.1, 0, -0.1], "post": [0, 0, 0]}
					}
				},
				"leg_left": {
					"rotation": [0, -12.5, 0]
				},
				"leg_right": {
					"rotation": [0, 12.5, 0]
				}
			}
		}
	}
}