{
	"credit": "Made with Blockbench",
	"textures": {
		"0": "cobblemon:block/sandy_mulch"
	},
	"elements": [
		{
			"name": "sandy",
			"from": [0, -0.95, 0],
			"to": [16, -0.95, 16],
			"rotation": {"angle": 0, "axis": "y", "origin": [8, -0.95, 8]},
			"faces": {
				"north": {"uv": [0, 0, 0, 0], "texture": "#0", "tintindex": 0},
				"east": {"uv": [0, 0, 0, 0], "texture": "#0", "tintindex": 0},
				"south": {"uv": [0, 0, 0, 0], "texture": "#0", "tintindex": 0},
				"west": {"uv": [0, 0, 0, 0], "texture": "#0", "tintindex": 0},
				"up": {"uv": [16, 16, 0, 0], "texture": "#0", "tintindex": 0},
				"down": {"uv": [0, 0, 0, 0], "texture": "#0", "tintindex": 0}
			}
		}
	],
	"groups": [
		{
			"name": "sandy_mulch",
			"origin": [8, 8, 8],
			"color": 0,
			"children": [0]
		}
	]
}