{
	"format_version": "1.8.0",
	"animations": {
		"pose": {
			"loop": true,
			"bones": {
				"arm_right": {
					"rotation": [0, 0, -22.5]
				},
				"arm_right2": {
					"rotation": [12.5, 0, -12.5]
				},
				"arm_right3": {
					"rotation": [20, 0, 0]
				},
				"arm_right4": {
					"rotation": [57.92277, -6.06809, -7.96341]
				},
				"arm_right5": {
					"rotation": [90, -17.5, 0]
				},
				"hand_right": {
					"rotation": [7.5, 0, 0]
				},
				"finger_right": {
					"rotation": [57.5, 0, -17.5]
				},
				"finger_right2": {
					"rotation": [57.5, 0, 0]
				},
				"finger_right3": {
					"rotation": [42.5, 0, 0]
				},
				"finger_right4": {
					"rotation": [75, 0, 0]
				},
				"finger_right5": {
					"rotation": [32.5, 0, 0]
				},
				"finger_right6": {
					"rotation": [40, 0, 0]
				},
				"finger_right7": {
					"rotation": [84.96207, -0.43399, 9.99067]
				},
				"finger_right8": {
					"rotation": [30, 0, 0]
				},
				"finger_right9": {
					"rotation": [27.5, 0, 0]
				},
				"finger_right10": {
					"rotation": [110, 0, 27.5]
				},
				"finger_right11": {
					"rotation": [62.5, 0, 0]
				}
			}
		},
		"pose2": {
			"loop": true,
			"bones": {
				"body_left": {
					"rotation": [0, 0, 180],
					"position": [8.25, 10.25, 8]
				},
				"face": {
					"position": [0, 0, -0.1]
				},
				"face2": {
					"position": [0, 0, -0.1]
				},
				"body_right": {
					"rotation": [0, 0, -180],
					"position": [-8.5, 10.5, 6]
				}
			}
		}
	}
}